{
  "best_metric": null,
  "best_model_checkpoint": null,
  "epoch": 3.0,
  "global_step": 359094,
  "is_hyper_param_search": false,
  "is_local_process_zero": true,
  "is_world_process_zero": true,
  "log_history": [
    {
      "epoch": 0.0,
      "learning_rate": 4.9982595013819564e-05,
      "loss": 3.973,
      "step": 500
    },
    {
      "epoch": 0.0,
      "learning_rate": 4.996519002763912e-05,
      "loss": 3.959,
      "step": 1000
    },
    {
      "epoch": 0.0,
      "learning_rate": 4.994778504145868e-05,
      "loss": 3.9004,
      "step": 1500
    },
    {
      "epoch": 0.0,
      "learning_rate": 4.9930380055278235e-05,
      "loss": 3.9006,
      "step": 2000
    },
    {
      "epoch": 0.01,
      "learning_rate": 4.9912975069097796e-05,
      "loss": 3.8607,
      "step": 2500
    },
    {
      "epoch": 0.01,
      "learning_rate": 4.989557008291736e-05,
      "loss": 3.8884,
      "step": 3000
    },
    {
      "epoch": 0.01,
      "learning_rate": 4.987816509673692e-05,
      "loss": 3.8996,
      "step": 3500
    },
    {
      "epoch": 0.01,
      "learning_rate": 4.9860760110556474e-05,
      "loss": 3.8412,
      "step": 4000
    },
    {
      "epoch": 0.01,
      "learning_rate": 4.9843355124376036e-05,
      "loss": 3.8475,
      "step": 4500
    },
    {
      "epoch": 0.01,
      "learning_rate": 4.982595013819559e-05,
      "loss": 3.8493,
      "step": 5000
    },
    {
      "epoch": 0.01,
      "learning_rate": 4.980854515201515e-05,
      "loss": 3.8078,
      "step": 5500
    },
    {
      "epoch": 0.01,
      "learning_rate": 4.979114016583471e-05,
      "loss": 3.811,
      "step": 6000
    },
    {
      "epoch": 0.01,
      "learning_rate": 4.977373517965427e-05,
      "loss": 3.8295,
      "step": 6500
    },
    {
      "epoch": 0.01,
      "learning_rate": 4.975633019347383e-05,
      "loss": 3.8447,
      "step": 7000
    },
    {
      "epoch": 0.02,
      "learning_rate": 4.9738925207293385e-05,
      "loss": 3.8589,
      "step": 7500
    },
    {
      "epoch": 0.02,
      "learning_rate": 4.9721520221112946e-05,
      "loss": 3.817,
      "step": 8000
    },
    {
      "epoch": 0.02,
      "learning_rate": 4.970411523493251e-05,
      "loss": 3.8001,
      "step": 8500
    },
    {
      "epoch": 0.02,
      "learning_rate": 4.968671024875207e-05,
      "loss": 3.8139,
      "step": 9000
    },
    {
      "epoch": 0.02,
      "learning_rate": 4.9669305262571624e-05,
      "loss": 3.8199,
      "step": 9500
    },
    {
      "epoch": 0.02,
      "learning_rate": 4.9651900276391186e-05,
      "loss": 3.8008,
      "step": 10000
    },
    {
      "epoch": 0.02,
      "learning_rate": 4.963449529021074e-05,
      "loss": 3.8081,
      "step": 10500
    },
    {
      "epoch": 0.02,
      "learning_rate": 4.96170903040303e-05,
      "loss": 3.8037,
      "step": 11000
    },
    {
      "epoch": 0.02,
      "learning_rate": 4.9599685317849857e-05,
      "loss": 3.7908,
      "step": 11500
    },
    {
      "epoch": 0.03,
      "learning_rate": 4.958228033166942e-05,
      "loss": 3.8034,
      "step": 12000
    },
    {
      "epoch": 0.03,
      "learning_rate": 4.956487534548897e-05,
      "loss": 3.8626,
      "step": 12500
    },
    {
      "epoch": 0.03,
      "learning_rate": 4.9547470359308534e-05,
      "loss": 3.8615,
      "step": 13000
    },
    {
      "epoch": 0.03,
      "learning_rate": 4.9530065373128096e-05,
      "loss": 3.8174,
      "step": 13500
    },
    {
      "epoch": 0.03,
      "learning_rate": 4.951266038694766e-05,
      "loss": 3.8194,
      "step": 14000
    },
    {
      "epoch": 0.03,
      "learning_rate": 4.949525540076721e-05,
      "loss": 3.7642,
      "step": 14500
    },
    {
      "epoch": 0.03,
      "learning_rate": 4.9477850414586774e-05,
      "loss": 3.8131,
      "step": 15000
    },
    {
      "epoch": 0.03,
      "learning_rate": 4.9460445428406335e-05,
      "loss": 3.823,
      "step": 15500
    },
    {
      "epoch": 0.03,
      "learning_rate": 4.944304044222589e-05,
      "loss": 3.7702,
      "step": 16000
    },
    {
      "epoch": 0.03,
      "learning_rate": 4.942563545604545e-05,
      "loss": 3.7761,
      "step": 16500
    },
    {
      "epoch": 0.04,
      "learning_rate": 4.9408230469865006e-05,
      "loss": 3.8033,
      "step": 17000
    },
    {
      "epoch": 0.04,
      "learning_rate": 4.939082548368457e-05,
      "loss": 3.7696,
      "step": 17500
    },
    {
      "epoch": 0.04,
      "learning_rate": 4.937342049750412e-05,
      "loss": 3.7955,
      "step": 18000
    },
    {
      "epoch": 0.04,
      "learning_rate": 4.935601551132369e-05,
      "loss": 3.7805,
      "step": 18500
    },
    {
      "epoch": 0.04,
      "learning_rate": 4.9338610525143246e-05,
      "loss": 3.8344,
      "step": 19000
    },
    {
      "epoch": 0.04,
      "learning_rate": 4.932120553896281e-05,
      "loss": 3.7784,
      "step": 19500
    },
    {
      "epoch": 0.04,
      "learning_rate": 4.930380055278236e-05,
      "loss": 3.8105,
      "step": 20000
    },
    {
      "epoch": 0.04,
      "learning_rate": 4.9286395566601923e-05,
      "loss": 3.7983,
      "step": 20500
    },
    {
      "epoch": 0.04,
      "learning_rate": 4.926899058042148e-05,
      "loss": 3.7656,
      "step": 21000
    },
    {
      "epoch": 0.04,
      "learning_rate": 4.925158559424104e-05,
      "loss": 3.7867,
      "step": 21500
    },
    {
      "epoch": 0.05,
      "learning_rate": 4.92341806080606e-05,
      "loss": 3.7218,
      "step": 22000
    },
    {
      "epoch": 0.05,
      "learning_rate": 4.9216775621880156e-05,
      "loss": 3.747,
      "step": 22500
    },
    {
      "epoch": 0.05,
      "learning_rate": 4.919937063569972e-05,
      "loss": 3.8001,
      "step": 23000
    },
    {
      "epoch": 0.05,
      "learning_rate": 4.918196564951928e-05,
      "loss": 3.7915,
      "step": 23500
    },
    {
      "epoch": 0.05,
      "learning_rate": 4.916456066333884e-05,
      "loss": 3.7758,
      "step": 24000
    },
    {
      "epoch": 0.05,
      "learning_rate": 4.9147155677158395e-05,
      "loss": 3.7732,
      "step": 24500
    },
    {
      "epoch": 0.05,
      "learning_rate": 4.912975069097796e-05,
      "loss": 3.8027,
      "step": 25000
    },
    {
      "epoch": 0.05,
      "learning_rate": 4.911234570479751e-05,
      "loss": 3.7548,
      "step": 25500
    },
    {
      "epoch": 0.05,
      "learning_rate": 4.909494071861707e-05,
      "loss": 3.7825,
      "step": 26000
    },
    {
      "epoch": 0.06,
      "learning_rate": 4.907753573243663e-05,
      "loss": 3.7691,
      "step": 26500
    },
    {
      "epoch": 0.06,
      "learning_rate": 4.906013074625619e-05,
      "loss": 3.7582,
      "step": 27000
    },
    {
      "epoch": 0.06,
      "learning_rate": 4.9042725760075744e-05,
      "loss": 3.7361,
      "step": 27500
    },
    {
      "epoch": 0.06,
      "learning_rate": 4.9025320773895306e-05,
      "loss": 3.7784,
      "step": 28000
    },
    {
      "epoch": 0.06,
      "learning_rate": 4.900791578771487e-05,
      "loss": 3.7522,
      "step": 28500
    },
    {
      "epoch": 0.06,
      "learning_rate": 4.899051080153443e-05,
      "loss": 3.7531,
      "step": 29000
    },
    {
      "epoch": 0.06,
      "learning_rate": 4.8973105815353984e-05,
      "loss": 3.7437,
      "step": 29500
    },
    {
      "epoch": 0.06,
      "learning_rate": 4.8955700829173545e-05,
      "loss": 3.7832,
      "step": 30000
    },
    {
      "epoch": 0.06,
      "learning_rate": 4.893829584299311e-05,
      "loss": 3.7523,
      "step": 30500
    },
    {
      "epoch": 0.06,
      "learning_rate": 4.892089085681266e-05,
      "loss": 3.7734,
      "step": 31000
    },
    {
      "epoch": 0.07,
      "learning_rate": 4.890348587063222e-05,
      "loss": 3.7202,
      "step": 31500
    },
    {
      "epoch": 0.07,
      "learning_rate": 4.888608088445178e-05,
      "loss": 3.7485,
      "step": 32000
    },
    {
      "epoch": 0.07,
      "learning_rate": 4.886867589827134e-05,
      "loss": 3.7476,
      "step": 32500
    },
    {
      "epoch": 0.07,
      "learning_rate": 4.8851270912090894e-05,
      "loss": 3.7753,
      "step": 33000
    },
    {
      "epoch": 0.07,
      "learning_rate": 4.8833865925910455e-05,
      "loss": 3.779,
      "step": 33500
    },
    {
      "epoch": 0.07,
      "learning_rate": 4.881646093973002e-05,
      "loss": 3.7706,
      "step": 34000
    },
    {
      "epoch": 0.07,
      "learning_rate": 4.879905595354958e-05,
      "loss": 3.752,
      "step": 34500
    },
    {
      "epoch": 0.07,
      "learning_rate": 4.878165096736913e-05,
      "loss": 3.7609,
      "step": 35000
    },
    {
      "epoch": 0.07,
      "learning_rate": 4.8764245981188695e-05,
      "loss": 3.7734,
      "step": 35500
    },
    {
      "epoch": 0.08,
      "learning_rate": 4.874684099500825e-05,
      "loss": 3.7855,
      "step": 36000
    },
    {
      "epoch": 0.08,
      "learning_rate": 4.872943600882781e-05,
      "loss": 3.7875,
      "step": 36500
    },
    {
      "epoch": 0.08,
      "learning_rate": 4.871203102264737e-05,
      "loss": 3.7269,
      "step": 37000
    },
    {
      "epoch": 0.08,
      "learning_rate": 4.869462603646693e-05,
      "loss": 3.7716,
      "step": 37500
    },
    {
      "epoch": 0.08,
      "learning_rate": 4.867722105028649e-05,
      "loss": 3.7534,
      "step": 38000
    },
    {
      "epoch": 0.08,
      "learning_rate": 4.8659816064106044e-05,
      "loss": 3.7498,
      "step": 38500
    },
    {
      "epoch": 0.08,
      "learning_rate": 4.8642411077925605e-05,
      "loss": 3.7751,
      "step": 39000
    },
    {
      "epoch": 0.08,
      "learning_rate": 4.862500609174517e-05,
      "loss": 3.7501,
      "step": 39500
    },
    {
      "epoch": 0.08,
      "learning_rate": 4.860760110556473e-05,
      "loss": 3.7873,
      "step": 40000
    },
    {
      "epoch": 0.08,
      "learning_rate": 4.859019611938428e-05,
      "loss": 3.7691,
      "step": 40500
    },
    {
      "epoch": 0.09,
      "learning_rate": 4.8572791133203845e-05,
      "loss": 3.7476,
      "step": 41000
    },
    {
      "epoch": 0.09,
      "learning_rate": 4.85553861470234e-05,
      "loss": 3.7918,
      "step": 41500
    },
    {
      "epoch": 0.09,
      "learning_rate": 4.853798116084296e-05,
      "loss": 3.7605,
      "step": 42000
    },
    {
      "epoch": 0.09,
      "learning_rate": 4.8520576174662516e-05,
      "loss": 3.7365,
      "step": 42500
    },
    {
      "epoch": 0.09,
      "learning_rate": 4.850317118848208e-05,
      "loss": 3.7649,
      "step": 43000
    },
    {
      "epoch": 0.09,
      "learning_rate": 4.848576620230164e-05,
      "loss": 3.7673,
      "step": 43500
    },
    {
      "epoch": 0.09,
      "learning_rate": 4.846836121612119e-05,
      "loss": 3.7827,
      "step": 44000
    },
    {
      "epoch": 0.09,
      "learning_rate": 4.8450956229940755e-05,
      "loss": 3.745,
      "step": 44500
    },
    {
      "epoch": 0.09,
      "learning_rate": 4.8433551243760316e-05,
      "loss": 3.7665,
      "step": 45000
    },
    {
      "epoch": 0.1,
      "learning_rate": 4.841614625757988e-05,
      "loss": 3.7481,
      "step": 45500
    },
    {
      "epoch": 0.1,
      "learning_rate": 4.839874127139943e-05,
      "loss": 3.7499,
      "step": 46000
    },
    {
      "epoch": 0.1,
      "learning_rate": 4.8381336285218994e-05,
      "loss": 3.7461,
      "step": 46500
    },
    {
      "epoch": 0.1,
      "learning_rate": 4.836393129903855e-05,
      "loss": 3.773,
      "step": 47000
    },
    {
      "epoch": 0.1,
      "learning_rate": 4.834652631285811e-05,
      "loss": 3.7852,
      "step": 47500
    },
    {
      "epoch": 0.1,
      "learning_rate": 4.8329121326677665e-05,
      "loss": 3.7314,
      "step": 48000
    },
    {
      "epoch": 0.1,
      "learning_rate": 4.831171634049723e-05,
      "loss": 3.7485,
      "step": 48500
    },
    {
      "epoch": 0.1,
      "learning_rate": 4.829431135431678e-05,
      "loss": 3.7381,
      "step": 49000
    },
    {
      "epoch": 0.1,
      "learning_rate": 4.827690636813635e-05,
      "loss": 3.7428,
      "step": 49500
    },
    {
      "epoch": 0.1,
      "learning_rate": 4.8259501381955905e-05,
      "loss": 3.7625,
      "step": 50000
    },
    {
      "epoch": 0.11,
      "learning_rate": 4.8242096395775466e-05,
      "loss": 3.767,
      "step": 50500
    },
    {
      "epoch": 0.11,
      "learning_rate": 4.822469140959502e-05,
      "loss": 3.77,
      "step": 51000
    },
    {
      "epoch": 0.11,
      "learning_rate": 4.820728642341458e-05,
      "loss": 3.765,
      "step": 51500
    },
    {
      "epoch": 0.11,
      "learning_rate": 4.8189881437234144e-05,
      "loss": 3.7601,
      "step": 52000
    },
    {
      "epoch": 0.11,
      "learning_rate": 4.81724764510537e-05,
      "loss": 3.7646,
      "step": 52500
    },
    {
      "epoch": 0.11,
      "learning_rate": 4.815507146487326e-05,
      "loss": 3.7495,
      "step": 53000
    },
    {
      "epoch": 0.11,
      "learning_rate": 4.8137666478692815e-05,
      "loss": 3.7468,
      "step": 53500
    },
    {
      "epoch": 0.11,
      "learning_rate": 4.8120261492512377e-05,
      "loss": 3.7628,
      "step": 54000
    },
    {
      "epoch": 0.11,
      "learning_rate": 4.810285650633193e-05,
      "loss": 3.7515,
      "step": 54500
    },
    {
      "epoch": 0.11,
      "learning_rate": 4.80854515201515e-05,
      "loss": 3.7505,
      "step": 55000
    },
    {
      "epoch": 0.12,
      "learning_rate": 4.8068046533971054e-05,
      "loss": 3.73,
      "step": 55500
    },
    {
      "epoch": 0.12,
      "learning_rate": 4.8050641547790616e-05,
      "loss": 3.7599,
      "step": 56000
    },
    {
      "epoch": 0.12,
      "learning_rate": 4.803323656161017e-05,
      "loss": 3.7576,
      "step": 56500
    },
    {
      "epoch": 0.12,
      "learning_rate": 4.801583157542973e-05,
      "loss": 3.7458,
      "step": 57000
    },
    {
      "epoch": 0.12,
      "learning_rate": 4.799842658924929e-05,
      "loss": 3.7256,
      "step": 57500
    },
    {
      "epoch": 0.12,
      "learning_rate": 4.798102160306885e-05,
      "loss": 3.7717,
      "step": 58000
    },
    {
      "epoch": 0.12,
      "learning_rate": 4.796361661688841e-05,
      "loss": 3.7666,
      "step": 58500
    },
    {
      "epoch": 0.12,
      "learning_rate": 4.7946211630707965e-05,
      "loss": 3.747,
      "step": 59000
    },
    {
      "epoch": 0.12,
      "learning_rate": 4.7928806644527526e-05,
      "loss": 3.7498,
      "step": 59500
    },
    {
      "epoch": 0.13,
      "learning_rate": 4.791140165834709e-05,
      "loss": 3.724,
      "step": 60000
    },
    {
      "epoch": 0.13,
      "learning_rate": 4.789399667216665e-05,
      "loss": 3.7506,
      "step": 60500
    },
    {
      "epoch": 0.13,
      "learning_rate": 4.7876591685986204e-05,
      "loss": 3.7602,
      "step": 61000
    },
    {
      "epoch": 0.13,
      "learning_rate": 4.7859186699805766e-05,
      "loss": 3.7548,
      "step": 61500
    },
    {
      "epoch": 0.13,
      "learning_rate": 4.784178171362532e-05,
      "loss": 3.7275,
      "step": 62000
    },
    {
      "epoch": 0.13,
      "learning_rate": 4.782437672744488e-05,
      "loss": 3.7755,
      "step": 62500
    },
    {
      "epoch": 0.13,
      "learning_rate": 4.780697174126444e-05,
      "loss": 3.7401,
      "step": 63000
    },
    {
      "epoch": 0.13,
      "learning_rate": 4.7789566755084e-05,
      "loss": 3.7726,
      "step": 63500
    },
    {
      "epoch": 0.13,
      "learning_rate": 4.777216176890355e-05,
      "loss": 3.7931,
      "step": 64000
    },
    {
      "epoch": 0.13,
      "learning_rate": 4.7754756782723114e-05,
      "loss": 3.7239,
      "step": 64500
    },
    {
      "epoch": 0.14,
      "learning_rate": 4.7737351796542676e-05,
      "loss": 3.7829,
      "step": 65000
    },
    {
      "epoch": 0.14,
      "learning_rate": 4.771994681036224e-05,
      "loss": 3.71,
      "step": 65500
    },
    {
      "epoch": 0.14,
      "learning_rate": 4.770254182418179e-05,
      "loss": 3.7926,
      "step": 66000
    },
    {
      "epoch": 0.14,
      "learning_rate": 4.7685136838001354e-05,
      "loss": 3.7577,
      "step": 66500
    },
    {
      "epoch": 0.14,
      "learning_rate": 4.7667731851820915e-05,
      "loss": 3.7483,
      "step": 67000
    },
    {
      "epoch": 0.14,
      "learning_rate": 4.765032686564047e-05,
      "loss": 3.7657,
      "step": 67500
    },
    {
      "epoch": 0.14,
      "learning_rate": 4.763292187946003e-05,
      "loss": 3.7114,
      "step": 68000
    },
    {
      "epoch": 0.14,
      "learning_rate": 4.7615516893279586e-05,
      "loss": 3.7495,
      "step": 68500
    },
    {
      "epoch": 0.14,
      "learning_rate": 4.759811190709915e-05,
      "loss": 3.7349,
      "step": 69000
    },
    {
      "epoch": 0.15,
      "learning_rate": 4.75807069209187e-05,
      "loss": 3.7558,
      "step": 69500
    },
    {
      "epoch": 0.15,
      "learning_rate": 4.7563301934738264e-05,
      "loss": 3.7746,
      "step": 70000
    },
    {
      "epoch": 0.15,
      "learning_rate": 4.7545896948557826e-05,
      "loss": 3.7417,
      "step": 70500
    },
    {
      "epoch": 0.15,
      "learning_rate": 4.752849196237739e-05,
      "loss": 3.7341,
      "step": 71000
    },
    {
      "epoch": 0.15,
      "learning_rate": 4.751108697619694e-05,
      "loss": 3.7256,
      "step": 71500
    },
    {
      "epoch": 0.15,
      "learning_rate": 4.7493681990016504e-05,
      "loss": 3.7523,
      "step": 72000
    },
    {
      "epoch": 0.15,
      "learning_rate": 4.747627700383606e-05,
      "loss": 3.7399,
      "step": 72500
    },
    {
      "epoch": 0.15,
      "learning_rate": 4.745887201765562e-05,
      "loss": 3.7138,
      "step": 73000
    },
    {
      "epoch": 0.15,
      "learning_rate": 4.744146703147518e-05,
      "loss": 3.7664,
      "step": 73500
    },
    {
      "epoch": 0.15,
      "learning_rate": 4.7424062045294736e-05,
      "loss": 3.7355,
      "step": 74000
    },
    {
      "epoch": 0.16,
      "learning_rate": 4.74066570591143e-05,
      "loss": 3.7494,
      "step": 74500
    },
    {
      "epoch": 0.16,
      "learning_rate": 4.738925207293385e-05,
      "loss": 3.732,
      "step": 75000
    },
    {
      "epoch": 0.16,
      "learning_rate": 4.737184708675342e-05,
      "loss": 3.7791,
      "step": 75500
    },
    {
      "epoch": 0.16,
      "learning_rate": 4.7354442100572975e-05,
      "loss": 3.7243,
      "step": 76000
    },
    {
      "epoch": 0.16,
      "learning_rate": 4.733703711439254e-05,
      "loss": 3.7676,
      "step": 76500
    },
    {
      "epoch": 0.16,
      "learning_rate": 4.731963212821209e-05,
      "loss": 3.7304,
      "step": 77000
    },
    {
      "epoch": 0.16,
      "learning_rate": 4.730222714203165e-05,
      "loss": 3.7113,
      "step": 77500
    },
    {
      "epoch": 0.16,
      "learning_rate": 4.728482215585121e-05,
      "loss": 3.7391,
      "step": 78000
    },
    {
      "epoch": 0.16,
      "learning_rate": 4.726741716967077e-05,
      "loss": 3.7485,
      "step": 78500
    },
    {
      "epoch": 0.16,
      "learning_rate": 4.7250012183490324e-05,
      "loss": 3.729,
      "step": 79000
    },
    {
      "epoch": 0.17,
      "learning_rate": 4.7232607197309886e-05,
      "loss": 3.7321,
      "step": 79500
    },
    {
      "epoch": 0.17,
      "learning_rate": 4.721520221112945e-05,
      "loss": 3.7307,
      "step": 80000
    },
    {
      "epoch": 0.17,
      "learning_rate": 4.7197797224949e-05,
      "loss": 3.7819,
      "step": 80500
    },
    {
      "epoch": 0.17,
      "learning_rate": 4.718039223876857e-05,
      "loss": 3.7013,
      "step": 81000
    },
    {
      "epoch": 0.17,
      "learning_rate": 4.7162987252588125e-05,
      "loss": 3.7645,
      "step": 81500
    },
    {
      "epoch": 0.17,
      "learning_rate": 4.714558226640769e-05,
      "loss": 3.7305,
      "step": 82000
    },
    {
      "epoch": 0.17,
      "learning_rate": 4.712817728022724e-05,
      "loss": 3.7392,
      "step": 82500
    },
    {
      "epoch": 0.17,
      "learning_rate": 4.71107722940468e-05,
      "loss": 3.7744,
      "step": 83000
    },
    {
      "epoch": 0.17,
      "learning_rate": 4.709336730786636e-05,
      "loss": 3.7325,
      "step": 83500
    },
    {
      "epoch": 0.18,
      "learning_rate": 4.707596232168592e-05,
      "loss": 3.7394,
      "step": 84000
    },
    {
      "epoch": 0.18,
      "learning_rate": 4.7058557335505474e-05,
      "loss": 3.7422,
      "step": 84500
    },
    {
      "epoch": 0.18,
      "learning_rate": 4.7041152349325036e-05,
      "loss": 3.7514,
      "step": 85000
    },
    {
      "epoch": 0.18,
      "learning_rate": 4.702374736314459e-05,
      "loss": 3.7255,
      "step": 85500
    },
    {
      "epoch": 0.18,
      "learning_rate": 4.700634237696416e-05,
      "loss": 3.7414,
      "step": 86000
    },
    {
      "epoch": 0.18,
      "learning_rate": 4.698893739078371e-05,
      "loss": 3.7546,
      "step": 86500
    },
    {
      "epoch": 0.18,
      "learning_rate": 4.6971532404603275e-05,
      "loss": 3.744,
      "step": 87000
    },
    {
      "epoch": 0.18,
      "learning_rate": 4.6954127418422836e-05,
      "loss": 3.7099,
      "step": 87500
    },
    {
      "epoch": 0.18,
      "learning_rate": 4.693672243224239e-05,
      "loss": 3.728,
      "step": 88000
    },
    {
      "epoch": 0.18,
      "learning_rate": 4.691931744606195e-05,
      "loss": 3.7638,
      "step": 88500
    },
    {
      "epoch": 0.19,
      "learning_rate": 4.690191245988151e-05,
      "loss": 3.7183,
      "step": 89000
    },
    {
      "epoch": 0.19,
      "learning_rate": 4.688450747370107e-05,
      "loss": 3.7208,
      "step": 89500
    },
    {
      "epoch": 0.19,
      "learning_rate": 4.6867102487520624e-05,
      "loss": 3.7435,
      "step": 90000
    },
    {
      "epoch": 0.19,
      "learning_rate": 4.6849697501340185e-05,
      "loss": 3.7827,
      "step": 90500
    },
    {
      "epoch": 0.19,
      "learning_rate": 4.683229251515974e-05,
      "loss": 3.7487,
      "step": 91000
    },
    {
      "epoch": 0.19,
      "learning_rate": 4.681488752897931e-05,
      "loss": 3.751,
      "step": 91500
    },
    {
      "epoch": 0.19,
      "learning_rate": 4.679748254279886e-05,
      "loss": 3.7385,
      "step": 92000
    },
    {
      "epoch": 0.19,
      "learning_rate": 4.6780077556618425e-05,
      "loss": 3.7616,
      "step": 92500
    },
    {
      "epoch": 0.19,
      "learning_rate": 4.676267257043798e-05,
      "loss": 3.7401,
      "step": 93000
    },
    {
      "epoch": 0.2,
      "learning_rate": 4.674526758425754e-05,
      "loss": 3.7383,
      "step": 93500
    },
    {
      "epoch": 0.2,
      "learning_rate": 4.6727862598077096e-05,
      "loss": 3.7415,
      "step": 94000
    },
    {
      "epoch": 0.2,
      "learning_rate": 4.671045761189666e-05,
      "loss": 3.7514,
      "step": 94500
    },
    {
      "epoch": 0.2,
      "learning_rate": 4.669305262571622e-05,
      "loss": 3.7191,
      "step": 95000
    },
    {
      "epoch": 0.2,
      "learning_rate": 4.6675647639535773e-05,
      "loss": 3.6956,
      "step": 95500
    },
    {
      "epoch": 0.2,
      "learning_rate": 4.6658242653355335e-05,
      "loss": 3.7221,
      "step": 96000
    },
    {
      "epoch": 0.2,
      "learning_rate": 4.6640837667174896e-05,
      "loss": 3.7038,
      "step": 96500
    },
    {
      "epoch": 0.2,
      "learning_rate": 4.662343268099446e-05,
      "loss": 3.768,
      "step": 97000
    },
    {
      "epoch": 0.2,
      "learning_rate": 4.660602769481401e-05,
      "loss": 3.7534,
      "step": 97500
    },
    {
      "epoch": 0.2,
      "learning_rate": 4.6588622708633574e-05,
      "loss": 3.7164,
      "step": 98000
    },
    {
      "epoch": 0.21,
      "learning_rate": 4.657121772245313e-05,
      "loss": 3.7688,
      "step": 98500
    },
    {
      "epoch": 0.21,
      "learning_rate": 4.655381273627269e-05,
      "loss": 3.7371,
      "step": 99000
    },
    {
      "epoch": 0.21,
      "learning_rate": 4.6536407750092245e-05,
      "loss": 3.6993,
      "step": 99500
    },
    {
      "epoch": 0.21,
      "learning_rate": 4.651900276391181e-05,
      "loss": 3.7473,
      "step": 100000
    },
    {
      "epoch": 0.21,
      "learning_rate": 4.650159777773136e-05,
      "loss": 3.7619,
      "step": 100500
    },
    {
      "epoch": 0.21,
      "learning_rate": 4.648419279155092e-05,
      "loss": 3.7042,
      "step": 101000
    },
    {
      "epoch": 0.21,
      "learning_rate": 4.6466787805370485e-05,
      "loss": 3.7605,
      "step": 101500
    },
    {
      "epoch": 0.21,
      "learning_rate": 4.6449382819190046e-05,
      "loss": 3.7685,
      "step": 102000
    },
    {
      "epoch": 0.21,
      "learning_rate": 4.643197783300961e-05,
      "loss": 3.7481,
      "step": 102500
    },
    {
      "epoch": 0.22,
      "learning_rate": 4.641457284682916e-05,
      "loss": 3.7466,
      "step": 103000
    },
    {
      "epoch": 0.22,
      "learning_rate": 4.6397167860648724e-05,
      "loss": 3.7663,
      "step": 103500
    },
    {
      "epoch": 0.22,
      "learning_rate": 4.637976287446828e-05,
      "loss": 3.7199,
      "step": 104000
    },
    {
      "epoch": 0.22,
      "learning_rate": 4.636235788828784e-05,
      "loss": 3.7586,
      "step": 104500
    },
    {
      "epoch": 0.22,
      "learning_rate": 4.6344952902107395e-05,
      "loss": 3.7228,
      "step": 105000
    },
    {
      "epoch": 0.22,
      "learning_rate": 4.6327547915926957e-05,
      "loss": 3.7314,
      "step": 105500
    },
    {
      "epoch": 0.22,
      "learning_rate": 4.631014292974651e-05,
      "loss": 3.7769,
      "step": 106000
    },
    {
      "epoch": 0.22,
      "learning_rate": 4.629273794356607e-05,
      "loss": 3.7485,
      "step": 106500
    },
    {
      "epoch": 0.22,
      "learning_rate": 4.6275332957385634e-05,
      "loss": 3.7252,
      "step": 107000
    },
    {
      "epoch": 0.22,
      "learning_rate": 4.6257927971205196e-05,
      "loss": 3.7351,
      "step": 107500
    },
    {
      "epoch": 0.23,
      "learning_rate": 4.624052298502475e-05,
      "loss": 3.7365,
      "step": 108000
    },
    {
      "epoch": 0.23,
      "learning_rate": 4.622311799884431e-05,
      "loss": 3.7463,
      "step": 108500
    },
    {
      "epoch": 0.23,
      "learning_rate": 4.6205713012663874e-05,
      "loss": 3.7205,
      "step": 109000
    },
    {
      "epoch": 0.23,
      "learning_rate": 4.618830802648343e-05,
      "loss": 3.7539,
      "step": 109500
    },
    {
      "epoch": 0.23,
      "learning_rate": 4.617090304030299e-05,
      "loss": 3.7268,
      "step": 110000
    },
    {
      "epoch": 0.23,
      "learning_rate": 4.6153498054122545e-05,
      "loss": 3.7516,
      "step": 110500
    },
    {
      "epoch": 0.23,
      "learning_rate": 4.6136093067942106e-05,
      "loss": 3.6881,
      "step": 111000
    },
    {
      "epoch": 0.23,
      "learning_rate": 4.611868808176166e-05,
      "loss": 3.7463,
      "step": 111500
    },
    {
      "epoch": 0.23,
      "learning_rate": 4.610128309558123e-05,
      "loss": 3.7265,
      "step": 112000
    },
    {
      "epoch": 0.23,
      "learning_rate": 4.6083878109400784e-05,
      "loss": 3.7148,
      "step": 112500
    },
    {
      "epoch": 0.24,
      "learning_rate": 4.6066473123220346e-05,
      "loss": 3.7491,
      "step": 113000
    },
    {
      "epoch": 0.24,
      "learning_rate": 4.60490681370399e-05,
      "loss": 3.7492,
      "step": 113500
    },
    {
      "epoch": 0.24,
      "learning_rate": 4.603166315085946e-05,
      "loss": 3.7624,
      "step": 114000
    },
    {
      "epoch": 0.24,
      "learning_rate": 4.601425816467902e-05,
      "loss": 3.7036,
      "step": 114500
    },
    {
      "epoch": 0.24,
      "learning_rate": 4.599685317849858e-05,
      "loss": 3.7145,
      "step": 115000
    },
    {
      "epoch": 0.24,
      "learning_rate": 4.597944819231814e-05,
      "loss": 3.7056,
      "step": 115500
    },
    {
      "epoch": 0.24,
      "learning_rate": 4.5962043206137694e-05,
      "loss": 3.6981,
      "step": 116000
    },
    {
      "epoch": 0.24,
      "learning_rate": 4.5944638219957256e-05,
      "loss": 3.7173,
      "step": 116500
    },
    {
      "epoch": 0.24,
      "learning_rate": 4.592723323377681e-05,
      "loss": 3.7398,
      "step": 117000
    },
    {
      "epoch": 0.25,
      "learning_rate": 4.590982824759638e-05,
      "loss": 3.7574,
      "step": 117500
    },
    {
      "epoch": 0.25,
      "learning_rate": 4.5892423261415934e-05,
      "loss": 3.7344,
      "step": 118000
    },
    {
      "epoch": 0.25,
      "learning_rate": 4.5875018275235495e-05,
      "loss": 3.7566,
      "step": 118500
    },
    {
      "epoch": 0.25,
      "learning_rate": 4.585761328905505e-05,
      "loss": 3.7672,
      "step": 119000
    },
    {
      "epoch": 0.25,
      "learning_rate": 4.584020830287461e-05,
      "loss": 3.7406,
      "step": 119500
    },
    {
      "epoch": 0.25,
      "learning_rate": 4.5822803316694166e-05,
      "loss": 3.7358,
      "step": 120000
    },
    {
      "epoch": 0.25,
      "learning_rate": 4.580539833051373e-05,
      "loss": 3.7464,
      "step": 120500
    },
    {
      "epoch": 0.25,
      "learning_rate": 4.578799334433328e-05,
      "loss": 3.736,
      "step": 121000
    },
    {
      "epoch": 0.25,
      "learning_rate": 4.5770588358152844e-05,
      "loss": 3.7006,
      "step": 121500
    },
    {
      "epoch": 0.25,
      "learning_rate": 4.57531833719724e-05,
      "loss": 3.7299,
      "step": 122000
    },
    {
      "epoch": 0.26,
      "learning_rate": 4.573577838579197e-05,
      "loss": 3.8022,
      "step": 122500
    },
    {
      "epoch": 0.26,
      "learning_rate": 4.571837339961152e-05,
      "loss": 3.7505,
      "step": 123000
    },
    {
      "epoch": 0.26,
      "learning_rate": 4.5700968413431084e-05,
      "loss": 3.7119,
      "step": 123500
    },
    {
      "epoch": 0.26,
      "learning_rate": 4.5683563427250645e-05,
      "loss": 3.764,
      "step": 124000
    },
    {
      "epoch": 0.26,
      "learning_rate": 4.56661584410702e-05,
      "loss": 3.727,
      "step": 124500
    },
    {
      "epoch": 0.26,
      "learning_rate": 4.564875345488976e-05,
      "loss": 3.732,
      "step": 125000
    },
    {
      "epoch": 0.26,
      "learning_rate": 4.5631348468709316e-05,
      "loss": 3.7483,
      "step": 125500
    },
    {
      "epoch": 0.26,
      "learning_rate": 4.561394348252888e-05,
      "loss": 3.7295,
      "step": 126000
    },
    {
      "epoch": 0.26,
      "learning_rate": 4.559653849634843e-05,
      "loss": 3.7693,
      "step": 126500
    },
    {
      "epoch": 0.27,
      "learning_rate": 4.5579133510167994e-05,
      "loss": 3.744,
      "step": 127000
    },
    {
      "epoch": 0.27,
      "learning_rate": 4.5561728523987555e-05,
      "loss": 3.7109,
      "step": 127500
    },
    {
      "epoch": 0.27,
      "learning_rate": 4.554432353780712e-05,
      "loss": 3.6995,
      "step": 128000
    },
    {
      "epoch": 0.27,
      "learning_rate": 4.552691855162667e-05,
      "loss": 3.7269,
      "step": 128500
    },
    {
      "epoch": 0.27,
      "learning_rate": 4.550951356544623e-05,
      "loss": 3.7646,
      "step": 129000
    },
    {
      "epoch": 0.27,
      "learning_rate": 4.549210857926579e-05,
      "loss": 3.7261,
      "step": 129500
    },
    {
      "epoch": 0.27,
      "learning_rate": 4.547470359308535e-05,
      "loss": 3.7494,
      "step": 130000
    },
    {
      "epoch": 0.27,
      "learning_rate": 4.545729860690491e-05,
      "loss": 3.7536,
      "step": 130500
    },
    {
      "epoch": 0.27,
      "learning_rate": 4.5439893620724466e-05,
      "loss": 3.7578,
      "step": 131000
    },
    {
      "epoch": 0.27,
      "learning_rate": 4.542248863454403e-05,
      "loss": 3.7351,
      "step": 131500
    },
    {
      "epoch": 0.28,
      "learning_rate": 4.540508364836358e-05,
      "loss": 3.6885,
      "step": 132000
    },
    {
      "epoch": 0.28,
      "learning_rate": 4.5387678662183144e-05,
      "loss": 3.7432,
      "step": 132500
    },
    {
      "epoch": 0.28,
      "learning_rate": 4.5370273676002705e-05,
      "loss": 3.7342,
      "step": 133000
    },
    {
      "epoch": 0.28,
      "learning_rate": 4.535286868982227e-05,
      "loss": 3.7756,
      "step": 133500
    },
    {
      "epoch": 0.28,
      "learning_rate": 4.533546370364182e-05,
      "loss": 3.7399,
      "step": 134000
    },
    {
      "epoch": 0.28,
      "learning_rate": 4.531805871746138e-05,
      "loss": 3.7222,
      "step": 134500
    },
    {
      "epoch": 0.28,
      "learning_rate": 4.530065373128094e-05,
      "loss": 3.7278,
      "step": 135000
    },
    {
      "epoch": 0.28,
      "learning_rate": 4.52832487451005e-05,
      "loss": 3.7536,
      "step": 135500
    },
    {
      "epoch": 0.28,
      "learning_rate": 4.5265843758920054e-05,
      "loss": 3.7197,
      "step": 136000
    },
    {
      "epoch": 0.29,
      "learning_rate": 4.5248438772739616e-05,
      "loss": 3.7499,
      "step": 136500
    },
    {
      "epoch": 0.29,
      "learning_rate": 4.523103378655918e-05,
      "loss": 3.7468,
      "step": 137000
    },
    {
      "epoch": 0.29,
      "learning_rate": 4.521362880037873e-05,
      "loss": 3.76,
      "step": 137500
    },
    {
      "epoch": 0.29,
      "learning_rate": 4.519622381419829e-05,
      "loss": 3.7047,
      "step": 138000
    },
    {
      "epoch": 0.29,
      "learning_rate": 4.5178818828017855e-05,
      "loss": 3.7141,
      "step": 138500
    },
    {
      "epoch": 0.29,
      "learning_rate": 4.5161413841837416e-05,
      "loss": 3.7283,
      "step": 139000
    },
    {
      "epoch": 0.29,
      "learning_rate": 4.514400885565697e-05,
      "loss": 3.7214,
      "step": 139500
    },
    {
      "epoch": 0.29,
      "learning_rate": 4.512660386947653e-05,
      "loss": 3.6999,
      "step": 140000
    },
    {
      "epoch": 0.29,
      "learning_rate": 4.510919888329609e-05,
      "loss": 3.7801,
      "step": 140500
    },
    {
      "epoch": 0.29,
      "learning_rate": 4.509179389711565e-05,
      "loss": 3.7298,
      "step": 141000
    },
    {
      "epoch": 0.3,
      "learning_rate": 4.5074388910935204e-05,
      "loss": 3.7303,
      "step": 141500
    },
    {
      "epoch": 0.3,
      "learning_rate": 4.5056983924754765e-05,
      "loss": 3.7436,
      "step": 142000
    },
    {
      "epoch": 0.3,
      "learning_rate": 4.503957893857432e-05,
      "loss": 3.7396,
      "step": 142500
    },
    {
      "epoch": 0.3,
      "learning_rate": 4.502217395239388e-05,
      "loss": 3.7448,
      "step": 143000
    },
    {
      "epoch": 0.3,
      "learning_rate": 4.500476896621344e-05,
      "loss": 3.728,
      "step": 143500
    },
    {
      "epoch": 0.3,
      "learning_rate": 4.4987363980033005e-05,
      "loss": 3.7313,
      "step": 144000
    },
    {
      "epoch": 0.3,
      "learning_rate": 4.496995899385256e-05,
      "loss": 3.7203,
      "step": 144500
    },
    {
      "epoch": 0.3,
      "learning_rate": 4.495255400767212e-05,
      "loss": 3.7533,
      "step": 145000
    },
    {
      "epoch": 0.3,
      "learning_rate": 4.493514902149168e-05,
      "loss": 3.6958,
      "step": 145500
    },
    {
      "epoch": 0.3,
      "learning_rate": 4.491774403531124e-05,
      "loss": 3.7591,
      "step": 146000
    },
    {
      "epoch": 0.31,
      "learning_rate": 4.49003390491308e-05,
      "loss": 3.7689,
      "step": 146500
    },
    {
      "epoch": 0.31,
      "learning_rate": 4.4882934062950353e-05,
      "loss": 3.7293,
      "step": 147000
    },
    {
      "epoch": 0.31,
      "learning_rate": 4.4865529076769915e-05,
      "loss": 3.7723,
      "step": 147500
    },
    {
      "epoch": 0.31,
      "learning_rate": 4.484812409058947e-05,
      "loss": 3.679,
      "step": 148000
    },
    {
      "epoch": 0.31,
      "learning_rate": 4.483071910440904e-05,
      "loss": 3.7165,
      "step": 148500
    },
    {
      "epoch": 0.31,
      "learning_rate": 4.481331411822859e-05,
      "loss": 3.7398,
      "step": 149000
    },
    {
      "epoch": 0.31,
      "learning_rate": 4.4795909132048154e-05,
      "loss": 3.7698,
      "step": 149500
    },
    {
      "epoch": 0.31,
      "learning_rate": 4.477850414586771e-05,
      "loss": 3.7374,
      "step": 150000
    },
    {
      "epoch": 0.31,
      "learning_rate": 4.476109915968727e-05,
      "loss": 3.7236,
      "step": 150500
    },
    {
      "epoch": 0.32,
      "learning_rate": 4.4743694173506825e-05,
      "loss": 3.7538,
      "step": 151000
    },
    {
      "epoch": 0.32,
      "learning_rate": 4.472628918732639e-05,
      "loss": 3.7119,
      "step": 151500
    },
    {
      "epoch": 0.32,
      "learning_rate": 4.470888420114595e-05,
      "loss": 3.7787,
      "step": 152000
    },
    {
      "epoch": 0.32,
      "learning_rate": 4.46914792149655e-05,
      "loss": 3.729,
      "step": 152500
    },
    {
      "epoch": 0.32,
      "learning_rate": 4.4674074228785065e-05,
      "loss": 3.7564,
      "step": 153000
    },
    {
      "epoch": 0.32,
      "learning_rate": 4.4656669242604626e-05,
      "loss": 3.7185,
      "step": 153500
    },
    {
      "epoch": 0.32,
      "learning_rate": 4.463926425642419e-05,
      "loss": 3.7392,
      "step": 154000
    },
    {
      "epoch": 0.32,
      "learning_rate": 4.462185927024374e-05,
      "loss": 3.7662,
      "step": 154500
    },
    {
      "epoch": 0.32,
      "learning_rate": 4.4604454284063304e-05,
      "loss": 3.7485,
      "step": 155000
    },
    {
      "epoch": 0.32,
      "learning_rate": 4.458704929788286e-05,
      "loss": 3.7443,
      "step": 155500
    },
    {
      "epoch": 0.33,
      "learning_rate": 4.456964431170242e-05,
      "loss": 3.709,
      "step": 156000
    },
    {
      "epoch": 0.33,
      "learning_rate": 4.4552239325521975e-05,
      "loss": 3.7535,
      "step": 156500
    },
    {
      "epoch": 0.33,
      "learning_rate": 4.453483433934154e-05,
      "loss": 3.7393,
      "step": 157000
    },
    {
      "epoch": 0.33,
      "learning_rate": 4.451742935316109e-05,
      "loss": 3.682,
      "step": 157500
    },
    {
      "epoch": 0.33,
      "learning_rate": 4.450002436698065e-05,
      "loss": 3.7595,
      "step": 158000
    },
    {
      "epoch": 0.33,
      "learning_rate": 4.4482619380800214e-05,
      "loss": 3.716,
      "step": 158500
    },
    {
      "epoch": 0.33,
      "learning_rate": 4.4465214394619776e-05,
      "loss": 3.7002,
      "step": 159000
    },
    {
      "epoch": 0.33,
      "learning_rate": 4.444780940843933e-05,
      "loss": 3.6854,
      "step": 159500
    },
    {
      "epoch": 0.33,
      "learning_rate": 4.443040442225889e-05,
      "loss": 3.6566,
      "step": 160000
    },
    {
      "epoch": 0.34,
      "learning_rate": 4.4412999436078454e-05,
      "loss": 3.7105,
      "step": 160500
    },
    {
      "epoch": 0.34,
      "learning_rate": 4.439559444989801e-05,
      "loss": 3.7271,
      "step": 161000
    },
    {
      "epoch": 0.34,
      "learning_rate": 4.437818946371757e-05,
      "loss": 3.7484,
      "step": 161500
    },
    {
      "epoch": 0.34,
      "learning_rate": 4.4360784477537125e-05,
      "loss": 3.711,
      "step": 162000
    },
    {
      "epoch": 0.34,
      "learning_rate": 4.4343379491356686e-05,
      "loss": 3.7433,
      "step": 162500
    },
    {
      "epoch": 0.34,
      "learning_rate": 4.432597450517624e-05,
      "loss": 3.7134,
      "step": 163000
    },
    {
      "epoch": 0.34,
      "learning_rate": 4.43085695189958e-05,
      "loss": 3.7135,
      "step": 163500
    },
    {
      "epoch": 0.34,
      "learning_rate": 4.4291164532815364e-05,
      "loss": 3.752,
      "step": 164000
    },
    {
      "epoch": 0.34,
      "learning_rate": 4.4273759546634926e-05,
      "loss": 3.7313,
      "step": 164500
    },
    {
      "epoch": 0.34,
      "learning_rate": 4.425635456045448e-05,
      "loss": 3.7224,
      "step": 165000
    },
    {
      "epoch": 0.35,
      "learning_rate": 4.423894957427404e-05,
      "loss": 3.7268,
      "step": 165500
    },
    {
      "epoch": 0.35,
      "learning_rate": 4.42215445880936e-05,
      "loss": 3.7194,
      "step": 166000
    },
    {
      "epoch": 0.35,
      "learning_rate": 4.420413960191316e-05,
      "loss": 3.7197,
      "step": 166500
    },
    {
      "epoch": 0.35,
      "learning_rate": 4.418673461573272e-05,
      "loss": 3.7399,
      "step": 167000
    },
    {
      "epoch": 0.35,
      "learning_rate": 4.4169329629552275e-05,
      "loss": 3.7344,
      "step": 167500
    },
    {
      "epoch": 0.35,
      "learning_rate": 4.4151924643371836e-05,
      "loss": 3.7213,
      "step": 168000
    },
    {
      "epoch": 0.35,
      "learning_rate": 4.413451965719139e-05,
      "loss": 3.7052,
      "step": 168500
    },
    {
      "epoch": 0.35,
      "learning_rate": 4.411711467101095e-05,
      "loss": 3.7867,
      "step": 169000
    },
    {
      "epoch": 0.35,
      "learning_rate": 4.4099709684830514e-05,
      "loss": 3.7384,
      "step": 169500
    },
    {
      "epoch": 0.36,
      "learning_rate": 4.4082304698650075e-05,
      "loss": 3.7445,
      "step": 170000
    },
    {
      "epoch": 0.36,
      "learning_rate": 4.406489971246963e-05,
      "loss": 3.7117,
      "step": 170500
    },
    {
      "epoch": 0.36,
      "learning_rate": 4.404749472628919e-05,
      "loss": 3.739,
      "step": 171000
    },
    {
      "epoch": 0.36,
      "learning_rate": 4.4030089740108746e-05,
      "loss": 3.7081,
      "step": 171500
    },
    {
      "epoch": 0.36,
      "learning_rate": 4.401268475392831e-05,
      "loss": 3.7078,
      "step": 172000
    },
    {
      "epoch": 0.36,
      "learning_rate": 4.399527976774786e-05,
      "loss": 3.7203,
      "step": 172500
    },
    {
      "epoch": 0.36,
      "learning_rate": 4.3977874781567424e-05,
      "loss": 3.7379,
      "step": 173000
    },
    {
      "epoch": 0.36,
      "learning_rate": 4.3960469795386986e-05,
      "loss": 3.7284,
      "step": 173500
    },
    {
      "epoch": 0.36,
      "learning_rate": 4.394306480920654e-05,
      "loss": 3.7646,
      "step": 174000
    },
    {
      "epoch": 0.36,
      "learning_rate": 4.39256598230261e-05,
      "loss": 3.732,
      "step": 174500
    },
    {
      "epoch": 0.37,
      "learning_rate": 4.3908254836845664e-05,
      "loss": 3.7341,
      "step": 175000
    },
    {
      "epoch": 1.47,
      "learning_rate": 2.5563501478721452e-05,
      "loss": 3.6732,
      "step": 175500
    },
    {
      "epoch": 1.47,
      "learning_rate": 2.5493881824814675e-05,
      "loss": 3.6715,
      "step": 176000
    },
    {
      "epoch": 1.47,
      "learning_rate": 2.5424262170907897e-05,
      "loss": 3.6656,
      "step": 176500
    },
    {
      "epoch": 1.48,
      "learning_rate": 2.535464251700112e-05,
      "loss": 3.6822,
      "step": 177000
    },
    {
      "epoch": 1.48,
      "learning_rate": 2.528502286309434e-05,
      "loss": 3.6635,
      "step": 177500
    },
    {
      "epoch": 1.49,
      "learning_rate": 2.5215403209187567e-05,
      "loss": 3.6494,
      "step": 178000
    },
    {
      "epoch": 1.49,
      "learning_rate": 2.514578355528079e-05,
      "loss": 3.649,
      "step": 178500
    },
    {
      "epoch": 1.5,
      "learning_rate": 2.507616390137402e-05,
      "loss": 3.6589,
      "step": 179000
    },
    {
      "epoch": 1.5,
      "learning_rate": 2.500654424746724e-05,
      "loss": 3.6706,
      "step": 179500
    },
    {
      "epoch": 1.5,
      "learning_rate": 2.4936924593560463e-05,
      "loss": 3.6492,
      "step": 180000
    },
    {
      "epoch": 1.51,
      "learning_rate": 2.4867304939653685e-05,
      "loss": 3.6435,
      "step": 180500
    },
    {
      "epoch": 1.51,
      "learning_rate": 2.4797685285746907e-05,
      "loss": 3.6525,
      "step": 181000
    },
    {
      "epoch": 1.52,
      "learning_rate": 2.4728065631840133e-05,
      "loss": 3.6411,
      "step": 181500
    },
    {
      "epoch": 1.52,
      "learning_rate": 2.4658445977933355e-05,
      "loss": 3.6359,
      "step": 182000
    },
    {
      "epoch": 1.52,
      "learning_rate": 2.4588826324026578e-05,
      "loss": 3.6318,
      "step": 182500
    },
    {
      "epoch": 1.53,
      "learning_rate": 2.45192066701198e-05,
      "loss": 3.6367,
      "step": 183000
    },
    {
      "epoch": 1.53,
      "learning_rate": 2.4449587016213025e-05,
      "loss": 3.6441,
      "step": 183500
    },
    {
      "epoch": 1.54,
      "learning_rate": 2.437996736230625e-05,
      "loss": 3.6234,
      "step": 184000
    },
    {
      "epoch": 1.54,
      "learning_rate": 2.4310347708399473e-05,
      "loss": 3.6411,
      "step": 184500
    },
    {
      "epoch": 1.55,
      "learning_rate": 2.42407280544927e-05,
      "loss": 3.6351,
      "step": 185000
    },
    {
      "epoch": 1.55,
      "learning_rate": 2.417110840058592e-05,
      "loss": 3.63,
      "step": 185500
    },
    {
      "epoch": 1.55,
      "learning_rate": 2.4101488746679143e-05,
      "loss": 3.6213,
      "step": 186000
    },
    {
      "epoch": 1.56,
      "learning_rate": 2.4031869092772366e-05,
      "loss": 3.6358,
      "step": 186500
    },
    {
      "epoch": 1.56,
      "learning_rate": 2.396224943886559e-05,
      "loss": 3.6162,
      "step": 187000
    },
    {
      "epoch": 1.57,
      "learning_rate": 2.3892629784958814e-05,
      "loss": 3.6314,
      "step": 187500
    },
    {
      "epoch": 1.57,
      "learning_rate": 2.3823010131052036e-05,
      "loss": 3.6313,
      "step": 188000
    },
    {
      "epoch": 1.57,
      "learning_rate": 2.375339047714526e-05,
      "loss": 3.651,
      "step": 188500
    },
    {
      "epoch": 1.58,
      "learning_rate": 2.3683770823238484e-05,
      "loss": 3.6346,
      "step": 189000
    },
    {
      "epoch": 1.58,
      "learning_rate": 2.361415116933171e-05,
      "loss": 3.637,
      "step": 189500
    },
    {
      "epoch": 1.59,
      "learning_rate": 2.354453151542493e-05,
      "loss": 3.6276,
      "step": 190000
    },
    {
      "epoch": 1.59,
      "learning_rate": 2.3474911861518157e-05,
      "loss": 3.6476,
      "step": 190500
    },
    {
      "epoch": 1.6,
      "learning_rate": 2.340529220761138e-05,
      "loss": 3.6312,
      "step": 191000
    },
    {
      "epoch": 1.6,
      "learning_rate": 2.3335672553704602e-05,
      "loss": 3.604,
      "step": 191500
    },
    {
      "epoch": 1.6,
      "learning_rate": 2.3266052899797824e-05,
      "loss": 3.6188,
      "step": 192000
    },
    {
      "epoch": 1.61,
      "learning_rate": 2.319643324589105e-05,
      "loss": 3.6222,
      "step": 192500
    },
    {
      "epoch": 1.61,
      "learning_rate": 2.3126813591984272e-05,
      "loss": 3.6135,
      "step": 193000
    },
    {
      "epoch": 1.62,
      "learning_rate": 2.3057193938077494e-05,
      "loss": 3.6045,
      "step": 193500
    },
    {
      "epoch": 1.62,
      "learning_rate": 2.298757428417072e-05,
      "loss": 3.6136,
      "step": 194000
    },
    {
      "epoch": 1.62,
      "learning_rate": 2.2917954630263942e-05,
      "loss": 3.6044,
      "step": 194500
    },
    {
      "epoch": 1.63,
      "learning_rate": 2.2848334976357168e-05,
      "loss": 3.6296,
      "step": 195000
    },
    {
      "epoch": 1.63,
      "learning_rate": 2.277871532245039e-05,
      "loss": 3.6243,
      "step": 195500
    },
    {
      "epoch": 1.64,
      "learning_rate": 2.2709095668543616e-05,
      "loss": 3.6267,
      "step": 196000
    },
    {
      "epoch": 1.64,
      "learning_rate": 2.2639476014636838e-05,
      "loss": 3.6295,
      "step": 196500
    },
    {
      "epoch": 1.65,
      "learning_rate": 2.256985636073006e-05,
      "loss": 3.603,
      "step": 197000
    },
    {
      "epoch": 1.65,
      "learning_rate": 2.2500236706823282e-05,
      "loss": 3.6046,
      "step": 197500
    },
    {
      "epoch": 1.65,
      "learning_rate": 2.2430617052916508e-05,
      "loss": 3.612,
      "step": 198000
    },
    {
      "epoch": 1.66,
      "learning_rate": 2.236099739900973e-05,
      "loss": 3.602,
      "step": 198500
    },
    {
      "epoch": 1.66,
      "learning_rate": 2.2291377745102952e-05,
      "loss": 3.627,
      "step": 199000
    },
    {
      "epoch": 1.67,
      "learning_rate": 2.2221758091196178e-05,
      "loss": 3.6046,
      "step": 199500
    },
    {
      "epoch": 1.67,
      "learning_rate": 2.21521384372894e-05,
      "loss": 3.6213,
      "step": 200000
    },
    {
      "epoch": 1.68,
      "learning_rate": 2.2082518783382626e-05,
      "loss": 3.5763,
      "step": 200500
    },
    {
      "epoch": 1.68,
      "learning_rate": 2.2012899129475848e-05,
      "loss": 3.612,
      "step": 201000
    },
    {
      "epoch": 1.68,
      "learning_rate": 2.1943279475569074e-05,
      "loss": 3.6095,
      "step": 201500
    },
    {
      "epoch": 1.69,
      "learning_rate": 2.1873659821662296e-05,
      "loss": 3.6176,
      "step": 202000
    },
    {
      "epoch": 1.69,
      "learning_rate": 2.180404016775552e-05,
      "loss": 3.5991,
      "step": 202500
    },
    {
      "epoch": 1.7,
      "learning_rate": 2.1734420513848744e-05,
      "loss": 3.5921,
      "step": 203000
    },
    {
      "epoch": 1.7,
      "learning_rate": 2.1664800859941966e-05,
      "loss": 3.5951,
      "step": 203500
    },
    {
      "epoch": 1.7,
      "learning_rate": 2.159518120603519e-05,
      "loss": 3.6325,
      "step": 204000
    },
    {
      "epoch": 1.71,
      "learning_rate": 2.152556155212841e-05,
      "loss": 3.6179,
      "step": 204500
    },
    {
      "epoch": 1.71,
      "learning_rate": 2.1455941898221636e-05,
      "loss": 3.6054,
      "step": 205000
    },
    {
      "epoch": 1.72,
      "learning_rate": 2.1386322244314862e-05,
      "loss": 3.6029,
      "step": 205500
    },
    {
      "epoch": 1.72,
      "learning_rate": 2.1316702590408084e-05,
      "loss": 3.6104,
      "step": 206000
    },
    {
      "epoch": 1.73,
      "learning_rate": 2.1247082936501306e-05,
      "loss": 3.606,
      "step": 206500
    },
    {
      "epoch": 1.73,
      "learning_rate": 2.1177463282594532e-05,
      "loss": 3.6029,
      "step": 207000
    },
    {
      "epoch": 1.73,
      "learning_rate": 2.1107843628687754e-05,
      "loss": 3.5942,
      "step": 207500
    },
    {
      "epoch": 1.74,
      "learning_rate": 2.1038223974780977e-05,
      "loss": 3.575,
      "step": 208000
    },
    {
      "epoch": 1.74,
      "learning_rate": 2.0968604320874202e-05,
      "loss": 3.597,
      "step": 208500
    },
    {
      "epoch": 1.75,
      "learning_rate": 2.0898984666967424e-05,
      "loss": 3.5711,
      "step": 209000
    },
    {
      "epoch": 1.75,
      "learning_rate": 2.0829365013060647e-05,
      "loss": 3.5913,
      "step": 209500
    },
    {
      "epoch": 1.75,
      "learning_rate": 2.075974535915387e-05,
      "loss": 3.5984,
      "step": 210000
    },
    {
      "epoch": 1.76,
      "learning_rate": 2.0690125705247095e-05,
      "loss": 3.6052,
      "step": 210500
    },
    {
      "epoch": 1.76,
      "learning_rate": 2.062050605134032e-05,
      "loss": 3.5904,
      "step": 211000
    },
    {
      "epoch": 1.77,
      "learning_rate": 2.0550886397433543e-05,
      "loss": 3.597,
      "step": 211500
    },
    {
      "epoch": 1.77,
      "learning_rate": 2.0481266743526768e-05,
      "loss": 3.576,
      "step": 212000
    },
    {
      "epoch": 1.78,
      "learning_rate": 2.041164708961999e-05,
      "loss": 3.6042,
      "step": 212500
    },
    {
      "epoch": 1.78,
      "learning_rate": 2.0342027435713213e-05,
      "loss": 3.5958,
      "step": 213000
    },
    {
      "epoch": 1.78,
      "learning_rate": 2.0272407781806435e-05,
      "loss": 3.5834,
      "step": 213500
    },
    {
      "epoch": 1.79,
      "learning_rate": 2.020278812789966e-05,
      "loss": 3.5994,
      "step": 214000
    },
    {
      "epoch": 1.79,
      "learning_rate": 2.0133168473992883e-05,
      "loss": 3.6135,
      "step": 214500
    },
    {
      "epoch": 1.8,
      "learning_rate": 2.0063548820086105e-05,
      "loss": 3.6048,
      "step": 215000
    },
    {
      "epoch": 1.8,
      "learning_rate": 1.9993929166179327e-05,
      "loss": 3.6156,
      "step": 215500
    },
    {
      "epoch": 1.8,
      "learning_rate": 1.9924309512272553e-05,
      "loss": 3.6054,
      "step": 216000
    },
    {
      "epoch": 1.81,
      "learning_rate": 1.985468985836578e-05,
      "loss": 3.5772,
      "step": 216500
    },
    {
      "epoch": 1.81,
      "learning_rate": 1.9785070204459e-05,
      "loss": 3.5864,
      "step": 217000
    },
    {
      "epoch": 1.82,
      "learning_rate": 1.9715450550552226e-05,
      "loss": 3.5898,
      "step": 217500
    },
    {
      "epoch": 1.82,
      "learning_rate": 1.964583089664545e-05,
      "loss": 3.5835,
      "step": 218000
    },
    {
      "epoch": 1.83,
      "learning_rate": 1.957621124273867e-05,
      "loss": 3.5838,
      "step": 218500
    },
    {
      "epoch": 1.83,
      "learning_rate": 1.9506591588831893e-05,
      "loss": 3.6066,
      "step": 219000
    },
    {
      "epoch": 1.83,
      "learning_rate": 1.943697193492512e-05,
      "loss": 3.5814,
      "step": 219500
    },
    {
      "epoch": 1.84,
      "learning_rate": 1.936735228101834e-05,
      "loss": 3.5642,
      "step": 220000
    },
    {
      "epoch": 1.84,
      "learning_rate": 1.9297732627111563e-05,
      "loss": 3.599,
      "step": 220500
    },
    {
      "epoch": 1.85,
      "learning_rate": 1.922811297320479e-05,
      "loss": 3.6006,
      "step": 221000
    },
    {
      "epoch": 1.85,
      "learning_rate": 1.915849331929801e-05,
      "loss": 3.5734,
      "step": 221500
    },
    {
      "epoch": 1.85,
      "learning_rate": 1.9088873665391237e-05,
      "loss": 3.6142,
      "step": 222000
    },
    {
      "epoch": 1.86,
      "learning_rate": 1.901925401148446e-05,
      "loss": 3.5969,
      "step": 222500
    },
    {
      "epoch": 1.86,
      "learning_rate": 1.8949634357577685e-05,
      "loss": 3.5904,
      "step": 223000
    },
    {
      "epoch": 1.87,
      "learning_rate": 1.8880014703670907e-05,
      "loss": 3.5773,
      "step": 223500
    },
    {
      "epoch": 1.87,
      "learning_rate": 1.881039504976413e-05,
      "loss": 3.5958,
      "step": 224000
    },
    {
      "epoch": 1.88,
      "learning_rate": 1.874077539585735e-05,
      "loss": 3.5841,
      "step": 224500
    },
    {
      "epoch": 1.88,
      "learning_rate": 1.8671155741950577e-05,
      "loss": 3.5779,
      "step": 225000
    },
    {
      "epoch": 1.88,
      "learning_rate": 1.86015360880438e-05,
      "loss": 3.5972,
      "step": 225500
    },
    {
      "epoch": 1.89,
      "learning_rate": 1.853191643413702e-05,
      "loss": 3.5925,
      "step": 226000
    },
    {
      "epoch": 1.89,
      "learning_rate": 1.8462296780230247e-05,
      "loss": 3.5857,
      "step": 226500
    },
    {
      "epoch": 1.9,
      "learning_rate": 1.839267712632347e-05,
      "loss": 3.5987,
      "step": 227000
    },
    {
      "epoch": 1.9,
      "learning_rate": 1.8323057472416695e-05,
      "loss": 3.594,
      "step": 227500
    },
    {
      "epoch": 1.9,
      "learning_rate": 1.8253437818509917e-05,
      "loss": 3.5927,
      "step": 228000
    },
    {
      "epoch": 1.91,
      "learning_rate": 1.8183818164603143e-05,
      "loss": 3.5965,
      "step": 228500
    },
    {
      "epoch": 1.91,
      "learning_rate": 1.8114198510696365e-05,
      "loss": 3.5774,
      "step": 229000
    },
    {
      "epoch": 1.92,
      "learning_rate": 1.8044578856789588e-05,
      "loss": 3.5724,
      "step": 229500
    },
    {
      "epoch": 1.92,
      "learning_rate": 1.7974959202882813e-05,
      "loss": 3.5583,
      "step": 230000
    },
    {
      "epoch": 1.93,
      "learning_rate": 1.7905339548976035e-05,
      "loss": 3.5811,
      "step": 230500
    },
    {
      "epoch": 1.93,
      "learning_rate": 1.7835719895069258e-05,
      "loss": 3.5701,
      "step": 231000
    },
    {
      "epoch": 1.93,
      "learning_rate": 1.776610024116248e-05,
      "loss": 3.5788,
      "step": 231500
    },
    {
      "epoch": 1.94,
      "learning_rate": 1.7696480587255706e-05,
      "loss": 3.5723,
      "step": 232000
    },
    {
      "epoch": 1.94,
      "learning_rate": 1.7626860933348928e-05,
      "loss": 3.5716,
      "step": 232500
    },
    {
      "epoch": 1.95,
      "learning_rate": 1.7557241279442153e-05,
      "loss": 3.5773,
      "step": 233000
    },
    {
      "epoch": 1.95,
      "learning_rate": 1.7487621625535376e-05,
      "loss": 3.5706,
      "step": 233500
    },
    {
      "epoch": 1.95,
      "learning_rate": 1.74180019716286e-05,
      "loss": 3.5813,
      "step": 234000
    },
    {
      "epoch": 1.96,
      "learning_rate": 1.7348382317721824e-05,
      "loss": 3.6077,
      "step": 234500
    },
    {
      "epoch": 1.96,
      "learning_rate": 1.7278762663815046e-05,
      "loss": 3.5724,
      "step": 235000
    },
    {
      "epoch": 1.97,
      "learning_rate": 1.720914300990827e-05,
      "loss": 3.5877,
      "step": 235500
    },
    {
      "epoch": 1.97,
      "learning_rate": 1.7139523356001494e-05,
      "loss": 3.5818,
      "step": 236000
    },
    {
      "epoch": 1.98,
      "learning_rate": 1.7069903702094716e-05,
      "loss": 3.5934,
      "step": 236500
    },
    {
      "epoch": 1.98,
      "learning_rate": 1.7000284048187938e-05,
      "loss": 3.5731,
      "step": 237000
    },
    {
      "epoch": 1.98,
      "learning_rate": 1.6930664394281164e-05,
      "loss": 3.5808,
      "step": 237500
    },
    {
      "epoch": 1.99,
      "learning_rate": 1.6861044740374386e-05,
      "loss": 3.5772,
      "step": 238000
    },
    {
      "epoch": 1.99,
      "learning_rate": 1.6791425086467612e-05,
      "loss": 3.5915,
      "step": 238500
    },
    {
      "epoch": 2.0,
      "learning_rate": 1.6721805432560834e-05,
      "loss": 3.5897,
      "step": 239000
    },
    {
      "epoch": 2.0,
      "learning_rate": 1.665218577865406e-05,
      "loss": 3.5768,
      "step": 239500
    },
    {
      "epoch": 2.01,
      "learning_rate": 1.6582566124747282e-05,
      "loss": 3.5563,
      "step": 240000
    },
    {
      "epoch": 2.01,
      "learning_rate": 1.6512946470840504e-05,
      "loss": 3.5543,
      "step": 240500
    },
    {
      "epoch": 2.01,
      "learning_rate": 1.644332681693373e-05,
      "loss": 3.567,
      "step": 241000
    },
    {
      "epoch": 2.02,
      "learning_rate": 1.6373707163026952e-05,
      "loss": 3.5758,
      "step": 241500
    },
    {
      "epoch": 2.02,
      "learning_rate": 1.6304087509120174e-05,
      "loss": 3.5532,
      "step": 242000
    },
    {
      "epoch": 2.03,
      "learning_rate": 1.6234467855213397e-05,
      "loss": 3.571,
      "step": 242500
    },
    {
      "epoch": 2.03,
      "learning_rate": 1.6164848201306622e-05,
      "loss": 3.5604,
      "step": 243000
    },
    {
      "epoch": 2.03,
      "learning_rate": 1.6095228547399844e-05,
      "loss": 3.572,
      "step": 243500
    },
    {
      "epoch": 2.04,
      "learning_rate": 1.602560889349307e-05,
      "loss": 3.558,
      "step": 244000
    },
    {
      "epoch": 2.04,
      "learning_rate": 1.5955989239586296e-05,
      "loss": 3.5675,
      "step": 244500
    },
    {
      "epoch": 2.05,
      "learning_rate": 1.5886369585679518e-05,
      "loss": 3.5636,
      "step": 245000
    },
    {
      "epoch": 2.05,
      "learning_rate": 1.581674993177274e-05,
      "loss": 3.5589,
      "step": 245500
    },
    {
      "epoch": 2.06,
      "learning_rate": 1.5747130277865962e-05,
      "loss": 3.5659,
      "step": 246000
    },
    {
      "epoch": 2.06,
      "learning_rate": 1.5677510623959188e-05,
      "loss": 3.5659,
      "step": 246500
    },
    {
      "epoch": 2.06,
      "learning_rate": 1.560789097005241e-05,
      "loss": 3.5732,
      "step": 247000
    },
    {
      "epoch": 2.07,
      "learning_rate": 1.5538271316145633e-05,
      "loss": 3.548,
      "step": 247500
    },
    {
      "epoch": 2.07,
      "learning_rate": 1.5468651662238855e-05,
      "loss": 3.5703,
      "step": 248000
    },
    {
      "epoch": 2.08,
      "learning_rate": 1.539903200833208e-05,
      "loss": 3.5579,
      "step": 248500
    },
    {
      "epoch": 2.08,
      "learning_rate": 1.5329412354425303e-05,
      "loss": 3.5469,
      "step": 249000
    },
    {
      "epoch": 2.08,
      "learning_rate": 1.525979270051853e-05,
      "loss": 3.5766,
      "step": 249500
    },
    {
      "epoch": 2.09,
      "learning_rate": 1.5190173046611752e-05,
      "loss": 3.5699,
      "step": 250000
    },
    {
      "epoch": 2.09,
      "learning_rate": 1.5120553392704975e-05,
      "loss": 3.5755,
      "step": 250500
    },
    {
      "epoch": 2.1,
      "learning_rate": 1.5050933738798198e-05,
      "loss": 3.5754,
      "step": 251000
    },
    {
      "epoch": 2.1,
      "learning_rate": 1.498131408489142e-05,
      "loss": 3.5517,
      "step": 251500
    },
    {
      "epoch": 2.11,
      "learning_rate": 1.4911694430984646e-05,
      "loss": 3.5514,
      "step": 252000
    },
    {
      "epoch": 2.11,
      "learning_rate": 1.4842074777077869e-05,
      "loss": 3.5405,
      "step": 252500
    },
    {
      "epoch": 2.11,
      "learning_rate": 1.4772455123171091e-05,
      "loss": 3.5712,
      "step": 253000
    },
    {
      "epoch": 2.12,
      "learning_rate": 1.4702835469264317e-05,
      "loss": 3.5628,
      "step": 253500
    },
    {
      "epoch": 2.12,
      "learning_rate": 1.463321581535754e-05,
      "loss": 3.5598,
      "step": 254000
    },
    {
      "epoch": 2.13,
      "learning_rate": 1.4563596161450763e-05,
      "loss": 3.5605,
      "step": 254500
    },
    {
      "epoch": 2.13,
      "learning_rate": 1.4493976507543985e-05,
      "loss": 3.5532,
      "step": 255000
    },
    {
      "epoch": 2.13,
      "learning_rate": 1.442435685363721e-05,
      "loss": 3.542,
      "step": 255500
    },
    {
      "epoch": 2.14,
      "learning_rate": 1.4354737199730433e-05,
      "loss": 3.5585,
      "step": 256000
    },
    {
      "epoch": 2.14,
      "learning_rate": 1.4285117545823657e-05,
      "loss": 3.5679,
      "step": 256500
    },
    {
      "epoch": 2.15,
      "learning_rate": 1.4215497891916879e-05,
      "loss": 3.5543,
      "step": 257000
    },
    {
      "epoch": 2.15,
      "learning_rate": 1.4145878238010105e-05,
      "loss": 3.5701,
      "step": 257500
    },
    {
      "epoch": 2.16,
      "learning_rate": 1.4076258584103327e-05,
      "loss": 3.5678,
      "step": 258000
    },
    {
      "epoch": 2.16,
      "learning_rate": 1.4006638930196551e-05,
      "loss": 3.5575,
      "step": 258500
    },
    {
      "epoch": 2.16,
      "learning_rate": 1.3937019276289775e-05,
      "loss": 3.5408,
      "step": 259000
    },
    {
      "epoch": 2.17,
      "learning_rate": 1.3867399622382999e-05,
      "loss": 3.5392,
      "step": 259500
    },
    {
      "epoch": 2.17,
      "learning_rate": 1.3797779968476221e-05,
      "loss": 3.5283,
      "step": 260000
    },
    {
      "epoch": 2.18,
      "learning_rate": 1.3728160314569443e-05,
      "loss": 3.5462,
      "step": 260500
    },
    {
      "epoch": 2.18,
      "learning_rate": 1.3658540660662669e-05,
      "loss": 3.5367,
      "step": 261000
    },
    {
      "epoch": 2.18,
      "learning_rate": 1.3588921006755891e-05,
      "loss": 3.5514,
      "step": 261500
    },
    {
      "epoch": 2.19,
      "learning_rate": 1.3519301352849115e-05,
      "loss": 3.5482,
      "step": 262000
    },
    {
      "epoch": 2.19,
      "learning_rate": 1.344968169894234e-05,
      "loss": 3.5648,
      "step": 262500
    },
    {
      "epoch": 2.2,
      "learning_rate": 1.3380062045035563e-05,
      "loss": 3.545,
      "step": 263000
    },
    {
      "epoch": 2.2,
      "learning_rate": 1.3310442391128785e-05,
      "loss": 3.5406,
      "step": 263500
    },
    {
      "epoch": 2.21,
      "learning_rate": 1.324082273722201e-05,
      "loss": 3.5359,
      "step": 264000
    },
    {
      "epoch": 2.21,
      "learning_rate": 1.3171203083315233e-05,
      "loss": 3.5461,
      "step": 264500
    },
    {
      "epoch": 2.21,
      "learning_rate": 1.3101583429408457e-05,
      "loss": 3.5424,
      "step": 265000
    },
    {
      "epoch": 2.22,
      "learning_rate": 1.303196377550168e-05,
      "loss": 3.5655,
      "step": 265500
    },
    {
      "epoch": 2.22,
      "learning_rate": 1.2962344121594902e-05,
      "loss": 3.5506,
      "step": 266000
    },
    {
      "epoch": 2.23,
      "learning_rate": 1.2892724467688127e-05,
      "loss": 3.5528,
      "step": 266500
    },
    {
      "epoch": 2.23,
      "learning_rate": 1.2823104813781351e-05,
      "loss": 3.5526,
      "step": 267000
    },
    {
      "epoch": 2.23,
      "learning_rate": 1.2753485159874573e-05,
      "loss": 3.5424,
      "step": 267500
    },
    {
      "epoch": 2.24,
      "learning_rate": 1.2683865505967799e-05,
      "loss": 3.5393,
      "step": 268000
    },
    {
      "epoch": 2.24,
      "learning_rate": 1.2614245852061021e-05,
      "loss": 3.5244,
      "step": 268500
    },
    {
      "epoch": 2.25,
      "learning_rate": 1.2544626198154244e-05,
      "loss": 3.5545,
      "step": 269000
    },
    {
      "epoch": 2.25,
      "learning_rate": 1.2475006544247467e-05,
      "loss": 3.5579,
      "step": 269500
    },
    {
      "epoch": 2.26,
      "learning_rate": 1.2405386890340691e-05,
      "loss": 3.562,
      "step": 270000
    },
    {
      "epoch": 2.26,
      "learning_rate": 1.2335767236433915e-05,
      "loss": 3.5579,
      "step": 270500
    },
    {
      "epoch": 2.26,
      "learning_rate": 1.2266147582527138e-05,
      "loss": 3.5424,
      "step": 271000
    },
    {
      "epoch": 2.27,
      "learning_rate": 1.2196527928620362e-05,
      "loss": 3.5505,
      "step": 271500
    },
    {
      "epoch": 2.27,
      "learning_rate": 1.2126908274713585e-05,
      "loss": 3.543,
      "step": 272000
    },
    {
      "epoch": 2.28,
      "learning_rate": 1.205728862080681e-05,
      "loss": 3.562,
      "step": 272500
    },
    {
      "epoch": 2.28,
      "learning_rate": 1.1987668966900033e-05,
      "loss": 3.5337,
      "step": 273000
    },
    {
      "epoch": 2.28,
      "learning_rate": 1.1918049312993256e-05,
      "loss": 3.5517,
      "step": 273500
    },
    {
      "epoch": 2.29,
      "learning_rate": 1.184842965908648e-05,
      "loss": 3.5384,
      "step": 274000
    },
    {
      "epoch": 2.29,
      "learning_rate": 1.1778810005179702e-05,
      "loss": 3.5244,
      "step": 274500
    },
    {
      "epoch": 2.3,
      "learning_rate": 1.1709190351272926e-05,
      "loss": 3.542,
      "step": 275000
    },
    {
      "epoch": 2.3,
      "learning_rate": 1.163957069736615e-05,
      "loss": 3.5487,
      "step": 275500
    },
    {
      "epoch": 2.31,
      "learning_rate": 1.1569951043459374e-05,
      "loss": 3.533,
      "step": 276000
    },
    {
      "epoch": 2.31,
      "learning_rate": 1.1500331389552598e-05,
      "loss": 3.5425,
      "step": 276500
    },
    {
      "epoch": 2.31,
      "learning_rate": 1.143071173564582e-05,
      "loss": 3.5572,
      "step": 277000
    },
    {
      "epoch": 2.32,
      "learning_rate": 1.1361092081739044e-05,
      "loss": 3.5407,
      "step": 277500
    },
    {
      "epoch": 2.32,
      "learning_rate": 1.1291472427832268e-05,
      "loss": 3.5295,
      "step": 278000
    },
    {
      "epoch": 2.33,
      "learning_rate": 1.1221852773925492e-05,
      "loss": 3.5462,
      "step": 278500
    },
    {
      "epoch": 2.33,
      "learning_rate": 1.1152233120018714e-05,
      "loss": 3.5465,
      "step": 279000
    },
    {
      "epoch": 2.34,
      "learning_rate": 1.1082613466111938e-05,
      "loss": 3.5386,
      "step": 279500
    },
    {
      "epoch": 2.34,
      "learning_rate": 1.101299381220516e-05,
      "loss": 3.545,
      "step": 280000
    },
    {
      "epoch": 2.34,
      "learning_rate": 1.0943374158298384e-05,
      "loss": 3.5524,
      "step": 280500
    },
    {
      "epoch": 2.35,
      "learning_rate": 1.087375450439161e-05,
      "loss": 3.5569,
      "step": 281000
    },
    {
      "epoch": 2.35,
      "learning_rate": 1.0804134850484832e-05,
      "loss": 3.5475,
      "step": 281500
    },
    {
      "epoch": 2.36,
      "learning_rate": 1.0734515196578056e-05,
      "loss": 3.5664,
      "step": 282000
    },
    {
      "epoch": 2.36,
      "learning_rate": 1.0664895542671278e-05,
      "loss": 3.5334,
      "step": 282500
    },
    {
      "epoch": 2.36,
      "learning_rate": 1.0595275888764502e-05,
      "loss": 3.5408,
      "step": 283000
    },
    {
      "epoch": 2.37,
      "learning_rate": 1.0525656234857726e-05,
      "loss": 3.5532,
      "step": 283500
    },
    {
      "epoch": 2.37,
      "learning_rate": 1.045603658095095e-05,
      "loss": 3.5564,
      "step": 284000
    },
    {
      "epoch": 2.38,
      "learning_rate": 1.0386416927044172e-05,
      "loss": 3.5406,
      "step": 284500
    },
    {
      "epoch": 2.38,
      "learning_rate": 1.0316797273137396e-05,
      "loss": 3.5478,
      "step": 285000
    },
    {
      "epoch": 2.39,
      "learning_rate": 1.024717761923062e-05,
      "loss": 3.5336,
      "step": 285500
    },
    {
      "epoch": 2.39,
      "learning_rate": 1.0177557965323842e-05,
      "loss": 3.5565,
      "step": 286000
    },
    {
      "epoch": 2.39,
      "learning_rate": 1.0107938311417068e-05,
      "loss": 3.5439,
      "step": 286500
    },
    {
      "epoch": 2.4,
      "learning_rate": 1.003831865751029e-05,
      "loss": 3.5489,
      "step": 287000
    },
    {
      "epoch": 2.4,
      "learning_rate": 9.968699003603514e-06,
      "loss": 3.567,
      "step": 287500
    },
    {
      "epoch": 2.41,
      "learning_rate": 9.899079349696736e-06,
      "loss": 3.5366,
      "step": 288000
    },
    {
      "epoch": 2.41,
      "learning_rate": 9.82945969578996e-06,
      "loss": 3.534,
      "step": 288500
    },
    {
      "epoch": 2.41,
      "learning_rate": 9.759840041883184e-06,
      "loss": 3.5366,
      "step": 289000
    },
    {
      "epoch": 2.42,
      "learning_rate": 9.690220387976408e-06,
      "loss": 3.5525,
      "step": 289500
    },
    {
      "epoch": 2.42,
      "learning_rate": 9.620600734069632e-06,
      "loss": 3.5197,
      "step": 290000
    },
    {
      "epoch": 2.43,
      "learning_rate": 9.550981080162854e-06,
      "loss": 3.5633,
      "step": 290500
    },
    {
      "epoch": 2.43,
      "learning_rate": 9.481361426256078e-06,
      "loss": 3.5362,
      "step": 291000
    },
    {
      "epoch": 2.44,
      "learning_rate": 9.4117417723493e-06,
      "loss": 3.5679,
      "step": 291500
    },
    {
      "epoch": 2.44,
      "learning_rate": 9.342122118442526e-06,
      "loss": 3.5663,
      "step": 292000
    },
    {
      "epoch": 2.44,
      "learning_rate": 9.272502464535749e-06,
      "loss": 3.5467,
      "step": 292500
    },
    {
      "epoch": 2.45,
      "learning_rate": 9.202882810628972e-06,
      "loss": 3.5482,
      "step": 293000
    },
    {
      "epoch": 2.45,
      "learning_rate": 9.133263156722195e-06,
      "loss": 3.5556,
      "step": 293500
    },
    {
      "epoch": 2.46,
      "learning_rate": 9.063643502815419e-06,
      "loss": 3.527,
      "step": 294000
    },
    {
      "epoch": 2.46,
      "learning_rate": 8.994023848908643e-06,
      "loss": 3.5263,
      "step": 294500
    },
    {
      "epoch": 2.46,
      "learning_rate": 8.924404195001867e-06,
      "loss": 3.5333,
      "step": 295000
    },
    {
      "epoch": 2.47,
      "learning_rate": 8.85478454109509e-06,
      "loss": 3.5376,
      "step": 295500
    },
    {
      "epoch": 2.47,
      "learning_rate": 8.785164887188313e-06,
      "loss": 3.5202,
      "step": 296000
    },
    {
      "epoch": 2.48,
      "learning_rate": 8.715545233281537e-06,
      "loss": 3.5482,
      "step": 296500
    },
    {
      "epoch": 2.48,
      "learning_rate": 8.64592557937476e-06,
      "loss": 3.535,
      "step": 297000
    },
    {
      "epoch": 2.49,
      "learning_rate": 8.576305925467985e-06,
      "loss": 3.5046,
      "step": 297500
    },
    {
      "epoch": 2.49,
      "learning_rate": 8.506686271561207e-06,
      "loss": 3.5433,
      "step": 298000
    },
    {
      "epoch": 2.49,
      "learning_rate": 8.43706661765443e-06,
      "loss": 3.5597,
      "step": 298500
    },
    {
      "epoch": 2.5,
      "learning_rate": 8.367446963747655e-06,
      "loss": 3.5449,
      "step": 299000
    },
    {
      "epoch": 2.5,
      "learning_rate": 8.297827309840877e-06,
      "loss": 3.5315,
      "step": 299500
    },
    {
      "epoch": 2.51,
      "learning_rate": 8.228207655934101e-06,
      "loss": 3.5426,
      "step": 300000
    },
    {
      "epoch": 2.51,
      "learning_rate": 8.158588002027325e-06,
      "loss": 3.5393,
      "step": 300500
    },
    {
      "epoch": 2.51,
      "learning_rate": 8.088968348120549e-06,
      "loss": 3.5583,
      "step": 301000
    },
    {
      "epoch": 2.52,
      "learning_rate": 8.019348694213771e-06,
      "loss": 3.5391,
      "step": 301500
    },
    {
      "epoch": 2.52,
      "learning_rate": 7.949729040306995e-06,
      "loss": 3.5609,
      "step": 302000
    },
    {
      "epoch": 2.53,
      "learning_rate": 7.880109386400219e-06,
      "loss": 3.5538,
      "step": 302500
    },
    {
      "epoch": 2.53,
      "learning_rate": 7.810489732493443e-06,
      "loss": 3.5405,
      "step": 303000
    },
    {
      "epoch": 2.54,
      "learning_rate": 7.740870078586665e-06,
      "loss": 3.5437,
      "step": 303500
    },
    {
      "epoch": 2.54,
      "learning_rate": 7.671250424679889e-06,
      "loss": 3.5353,
      "step": 304000
    },
    {
      "epoch": 2.54,
      "learning_rate": 7.601630770773113e-06,
      "loss": 3.5429,
      "step": 304500
    },
    {
      "epoch": 2.55,
      "learning_rate": 7.532011116866336e-06,
      "loss": 3.5592,
      "step": 305000
    },
    {
      "epoch": 2.55,
      "learning_rate": 7.46239146295956e-06,
      "loss": 3.5329,
      "step": 305500
    },
    {
      "epoch": 2.56,
      "learning_rate": 7.392771809052783e-06,
      "loss": 3.5415,
      "step": 306000
    },
    {
      "epoch": 2.56,
      "learning_rate": 7.323152155146007e-06,
      "loss": 3.5436,
      "step": 306500
    },
    {
      "epoch": 2.56,
      "learning_rate": 7.253532501239229e-06,
      "loss": 3.5342,
      "step": 307000
    },
    {
      "epoch": 2.57,
      "learning_rate": 7.183912847332454e-06,
      "loss": 3.5549,
      "step": 307500
    },
    {
      "epoch": 2.57,
      "learning_rate": 7.114293193425676e-06,
      "loss": 3.5277,
      "step": 308000
    },
    {
      "epoch": 2.58,
      "learning_rate": 7.0446735395189e-06,
      "loss": 3.5218,
      "step": 308500
    },
    {
      "epoch": 2.58,
      "learning_rate": 6.975053885612125e-06,
      "loss": 3.5505,
      "step": 309000
    },
    {
      "epoch": 2.59,
      "learning_rate": 6.905434231705347e-06,
      "loss": 3.5525,
      "step": 309500
    },
    {
      "epoch": 2.59,
      "learning_rate": 6.835814577798571e-06,
      "loss": 3.5323,
      "step": 310000
    },
    {
      "epoch": 2.59,
      "learning_rate": 6.766194923891794e-06,
      "loss": 3.5465,
      "step": 310500
    },
    {
      "epoch": 2.6,
      "learning_rate": 6.696575269985018e-06,
      "loss": 3.5288,
      "step": 311000
    },
    {
      "epoch": 2.6,
      "learning_rate": 6.6269556160782415e-06,
      "loss": 3.5272,
      "step": 311500
    },
    {
      "epoch": 2.61,
      "learning_rate": 6.557335962171465e-06,
      "loss": 3.5561,
      "step": 312000
    },
    {
      "epoch": 2.61,
      "learning_rate": 6.487716308264688e-06,
      "loss": 3.5242,
      "step": 312500
    },
    {
      "epoch": 2.61,
      "learning_rate": 6.4180966543579124e-06,
      "loss": 3.5376,
      "step": 313000
    },
    {
      "epoch": 2.62,
      "learning_rate": 6.348477000451136e-06,
      "loss": 3.5499,
      "step": 313500
    },
    {
      "epoch": 2.62,
      "learning_rate": 6.278857346544359e-06,
      "loss": 3.5315,
      "step": 314000
    },
    {
      "epoch": 2.63,
      "learning_rate": 6.209237692637583e-06,
      "loss": 3.548,
      "step": 314500
    },
    {
      "epoch": 2.63,
      "learning_rate": 6.139618038730806e-06,
      "loss": 3.5366,
      "step": 315000
    },
    {
      "epoch": 2.64,
      "learning_rate": 6.06999838482403e-06,
      "loss": 3.5387,
      "step": 315500
    },
    {
      "epoch": 2.64,
      "learning_rate": 6.0003787309172536e-06,
      "loss": 3.5639,
      "step": 316000
    },
    {
      "epoch": 2.64,
      "learning_rate": 5.930759077010477e-06,
      "loss": 3.5558,
      "step": 316500
    },
    {
      "epoch": 2.65,
      "learning_rate": 5.861139423103701e-06,
      "loss": 3.5425,
      "step": 317000
    },
    {
      "epoch": 2.65,
      "learning_rate": 5.791519769196924e-06,
      "loss": 3.5312,
      "step": 317500
    },
    {
      "epoch": 2.66,
      "learning_rate": 5.721900115290147e-06,
      "loss": 3.5682,
      "step": 318000
    },
    {
      "epoch": 2.66,
      "learning_rate": 5.652280461383371e-06,
      "loss": 3.5337,
      "step": 318500
    },
    {
      "epoch": 2.67,
      "learning_rate": 5.582660807476594e-06,
      "loss": 3.5112,
      "step": 319000
    },
    {
      "epoch": 2.67,
      "learning_rate": 5.513041153569817e-06,
      "loss": 3.5339,
      "step": 319500
    },
    {
      "epoch": 2.67,
      "learning_rate": 5.443421499663042e-06,
      "loss": 3.53,
      "step": 320000
    },
    {
      "epoch": 2.68,
      "learning_rate": 5.373801845756265e-06,
      "loss": 3.5478,
      "step": 320500
    },
    {
      "epoch": 2.68,
      "learning_rate": 5.304182191849488e-06,
      "loss": 3.5279,
      "step": 321000
    },
    {
      "epoch": 2.69,
      "learning_rate": 5.234562537942712e-06,
      "loss": 3.5241,
      "step": 321500
    },
    {
      "epoch": 2.69,
      "learning_rate": 5.164942884035935e-06,
      "loss": 3.5154,
      "step": 322000
    },
    {
      "epoch": 2.69,
      "learning_rate": 5.095323230129159e-06,
      "loss": 3.5449,
      "step": 322500
    },
    {
      "epoch": 2.7,
      "learning_rate": 5.025703576222382e-06,
      "loss": 3.5509,
      "step": 323000
    },
    {
      "epoch": 2.7,
      "learning_rate": 4.956083922315605e-06,
      "loss": 3.5633,
      "step": 323500
    },
    {
      "epoch": 2.71,
      "learning_rate": 4.886464268408829e-06,
      "loss": 3.5211,
      "step": 324000
    },
    {
      "epoch": 2.71,
      "learning_rate": 4.816844614502053e-06,
      "loss": 3.5361,
      "step": 324500
    },
    {
      "epoch": 2.72,
      "learning_rate": 4.747224960595276e-06,
      "loss": 3.5544,
      "step": 325000
    },
    {
      "epoch": 2.72,
      "learning_rate": 4.6776053066885e-06,
      "loss": 3.5206,
      "step": 325500
    },
    {
      "epoch": 2.72,
      "learning_rate": 4.607985652781723e-06,
      "loss": 3.5485,
      "step": 326000
    },
    {
      "epoch": 2.73,
      "learning_rate": 4.538365998874946e-06,
      "loss": 3.5476,
      "step": 326500
    },
    {
      "epoch": 2.73,
      "learning_rate": 4.46874634496817e-06,
      "loss": 3.5235,
      "step": 327000
    },
    {
      "epoch": 2.74,
      "learning_rate": 4.399126691061393e-06,
      "loss": 3.5444,
      "step": 327500
    },
    {
      "epoch": 2.74,
      "learning_rate": 4.329507037154617e-06,
      "loss": 3.5221,
      "step": 328000
    },
    {
      "epoch": 2.74,
      "learning_rate": 4.25988738324784e-06,
      "loss": 3.5512,
      "step": 328500
    },
    {
      "epoch": 2.75,
      "learning_rate": 4.190267729341064e-06,
      "loss": 3.5338,
      "step": 329000
    },
    {
      "epoch": 2.75,
      "learning_rate": 4.120648075434288e-06,
      "loss": 3.5368,
      "step": 329500
    },
    {
      "epoch": 2.76,
      "learning_rate": 4.051028421527511e-06,
      "loss": 3.5286,
      "step": 330000
    },
    {
      "epoch": 2.76,
      "learning_rate": 3.981408767620734e-06,
      "loss": 3.5339,
      "step": 330500
    },
    {
      "epoch": 2.77,
      "learning_rate": 3.911789113713958e-06,
      "loss": 3.5467,
      "step": 331000
    },
    {
      "epoch": 2.77,
      "learning_rate": 3.842169459807181e-06,
      "loss": 3.5255,
      "step": 331500
    },
    {
      "epoch": 2.77,
      "learning_rate": 3.772549805900405e-06,
      "loss": 3.5448,
      "step": 332000
    },
    {
      "epoch": 2.78,
      "learning_rate": 3.7029301519936285e-06,
      "loss": 3.5517,
      "step": 332500
    },
    {
      "epoch": 2.78,
      "learning_rate": 3.633310498086852e-06,
      "loss": 3.5491,
      "step": 333000
    },
    {
      "epoch": 2.79,
      "learning_rate": 3.563690844180076e-06,
      "loss": 3.5395,
      "step": 333500
    },
    {
      "epoch": 2.79,
      "learning_rate": 3.4940711902732994e-06,
      "loss": 3.5343,
      "step": 334000
    },
    {
      "epoch": 2.79,
      "learning_rate": 3.424451536366523e-06,
      "loss": 3.5232,
      "step": 334500
    },
    {
      "epoch": 2.8,
      "learning_rate": 3.354831882459746e-06,
      "loss": 3.5354,
      "step": 335000
    },
    {
      "epoch": 2.8,
      "learning_rate": 3.2852122285529696e-06,
      "loss": 3.5323,
      "step": 335500
    },
    {
      "epoch": 2.81,
      "learning_rate": 3.215592574646193e-06,
      "loss": 3.5506,
      "step": 336000
    },
    {
      "epoch": 2.81,
      "learning_rate": 3.1459729207394166e-06,
      "loss": 3.5301,
      "step": 336500
    },
    {
      "epoch": 2.82,
      "learning_rate": 3.07635326683264e-06,
      "loss": 3.5321,
      "step": 337000
    },
    {
      "epoch": 2.82,
      "learning_rate": 3.0067336129258637e-06,
      "loss": 3.542,
      "step": 337500
    },
    {
      "epoch": 2.82,
      "learning_rate": 2.937113959019087e-06,
      "loss": 3.521,
      "step": 338000
    },
    {
      "epoch": 2.83,
      "learning_rate": 2.8674943051123107e-06,
      "loss": 3.5427,
      "step": 338500
    },
    {
      "epoch": 2.83,
      "learning_rate": 2.797874651205534e-06,
      "loss": 3.5246,
      "step": 339000
    },
    {
      "epoch": 2.84,
      "learning_rate": 2.7282549972987577e-06,
      "loss": 3.5291,
      "step": 339500
    },
    {
      "epoch": 2.84,
      "learning_rate": 2.6586353433919813e-06,
      "loss": 3.5298,
      "step": 340000
    },
    {
      "epoch": 2.84,
      "learning_rate": 2.5890156894852044e-06,
      "loss": 3.5096,
      "step": 340500
    },
    {
      "epoch": 2.85,
      "learning_rate": 2.519396035578428e-06,
      "loss": 3.5441,
      "step": 341000
    },
    {
      "epoch": 2.85,
      "learning_rate": 2.4497763816716514e-06,
      "loss": 3.5241,
      "step": 341500
    },
    {
      "epoch": 2.86,
      "learning_rate": 2.3801567277648753e-06,
      "loss": 3.518,
      "step": 342000
    },
    {
      "epoch": 2.86,
      "learning_rate": 2.3105370738580984e-06,
      "loss": 3.5438,
      "step": 342500
    },
    {
      "epoch": 2.87,
      "learning_rate": 2.240917419951322e-06,
      "loss": 3.544,
      "step": 343000
    },
    {
      "epoch": 2.87,
      "learning_rate": 2.1712977660445455e-06,
      "loss": 3.5162,
      "step": 343500
    },
    {
      "epoch": 2.87,
      "learning_rate": 2.101678112137769e-06,
      "loss": 3.5334,
      "step": 344000
    },
    {
      "epoch": 2.88,
      "learning_rate": 2.0320584582309925e-06,
      "loss": 3.5432,
      "step": 344500
    },
    {
      "epoch": 2.88,
      "learning_rate": 1.962438804324216e-06,
      "loss": 3.5348,
      "step": 345000
    },
    {
      "epoch": 2.89,
      "learning_rate": 1.8928191504174396e-06,
      "loss": 3.5267,
      "step": 345500
    },
    {
      "epoch": 2.89,
      "learning_rate": 1.8231994965106629e-06,
      "loss": 3.5369,
      "step": 346000
    },
    {
      "epoch": 2.89,
      "learning_rate": 1.7535798426038866e-06,
      "loss": 3.5256,
      "step": 346500
    },
    {
      "epoch": 2.9,
      "learning_rate": 1.6839601886971101e-06,
      "loss": 3.5446,
      "step": 347000
    },
    {
      "epoch": 2.9,
      "learning_rate": 1.6143405347903334e-06,
      "loss": 3.5367,
      "step": 347500
    },
    {
      "epoch": 2.91,
      "learning_rate": 1.5447208808835572e-06,
      "loss": 3.5153,
      "step": 348000
    },
    {
      "epoch": 2.91,
      "learning_rate": 1.4751012269767805e-06,
      "loss": 3.5237,
      "step": 348500
    },
    {
      "epoch": 2.92,
      "learning_rate": 1.405481573070004e-06,
      "loss": 3.5365,
      "step": 349000
    },
    {
      "epoch": 2.92,
      "learning_rate": 1.3358619191632275e-06,
      "loss": 3.5114,
      "step": 349500
    },
    {
      "epoch": 2.92,
      "learning_rate": 1.266242265256451e-06,
      "loss": 3.543,
      "step": 350000
    },
    {
      "epoch": 2.93,
      "learning_rate": 1.1966226113496745e-06,
      "loss": 3.5311,
      "step": 350500
    },
    {
      "epoch": 2.93,
      "learning_rate": 1.127002957442898e-06,
      "loss": 3.5205,
      "step": 351000
    },
    {
      "epoch": 2.94,
      "learning_rate": 1.0573833035361216e-06,
      "loss": 3.5359,
      "step": 351500
    },
    {
      "epoch": 2.94,
      "learning_rate": 9.87763649629345e-07,
      "loss": 3.5404,
      "step": 352000
    },
    {
      "epoch": 2.94,
      "learning_rate": 9.181439957225686e-07,
      "loss": 3.5502,
      "step": 352500
    },
    {
      "epoch": 2.95,
      "learning_rate": 8.48524341815792e-07,
      "loss": 3.5198,
      "step": 353000
    },
    {
      "epoch": 2.95,
      "learning_rate": 7.789046879090156e-07,
      "loss": 3.5178,
      "step": 353500
    },
    {
      "epoch": 2.96,
      "learning_rate": 7.09285034002239e-07,
      "loss": 3.5279,
      "step": 354000
    },
    {
      "epoch": 2.96,
      "learning_rate": 6.396653800954625e-07,
      "loss": 3.5178,
      "step": 354500
    },
    {
      "epoch": 2.97,
      "learning_rate": 5.700457261886859e-07,
      "loss": 3.5379,
      "step": 355000
    },
    {
      "epoch": 2.97,
      "learning_rate": 5.004260722819094e-07,
      "loss": 3.5361,
      "step": 355500
    },
    {
      "epoch": 2.97,
      "learning_rate": 4.30806418375133e-07,
      "loss": 3.5216,
      "step": 356000
    },
    {
      "epoch": 2.98,
      "learning_rate": 3.6118676446835647e-07,
      "loss": 3.5355,
      "step": 356500
    },
    {
      "epoch": 2.98,
      "learning_rate": 2.9156711056158e-07,
      "loss": 3.5342,
      "step": 357000
    },
    {
      "epoch": 2.99,
      "learning_rate": 2.2194745665480351e-07,
      "loss": 3.5413,
      "step": 357500
    },
    {
      "epoch": 2.99,
      "learning_rate": 1.52327802748027e-07,
      "loss": 3.5368,
      "step": 358000
    },
    {
      "epoch": 3.0,
      "learning_rate": 8.270814884125049e-08,
      "loss": 3.5261,
      "step": 358500
    },
    {
      "epoch": 3.0,
      "learning_rate": 1.3088494934473981e-08,
      "loss": 3.5439,
      "step": 359000
    },
    {
      "epoch": 3.0,
      "step": 359094,
      "total_flos": 114666744137121792,
      "train_runtime": 39355.7521,
      "train_samples_per_second": 9.124
    }
  ],
  "max_steps": 359094,
  "num_train_epochs": 3,
  "total_flos": 114666744137121792,
  "trial_name": null,
  "trial_params": null
}
